%!PS-Adobe-3.0 EPSF-3.0 
%%BoundingBox: 0 0 199 79
%%Pages: 0
%%Creator: LibreOffice 6.0
%%Title: none
%%CreationDate: none
%%LanguageLevel: 2
%%EndComments
%%BeginProlog
%%BeginResource: procset SDRes-Prolog 1.0 0
/b4_inc_state save def
/dict_count countdictstack def
/op_count count 1 sub def
userdict begin
0 setgray 0 setlinecap 1 setlinewidth 0 setlinejoin 10 setmiterlimit[] 0 setdash newpath
/languagelevel where {pop languagelevel 1 ne {false setstrokeadjust false setoverprint} if} if
/bdef {bind def} bind def
/c {setrgbcolor} bdef
/l {neg lineto} bdef
/rl {neg rlineto} bdef
/lc {setlinecap} bdef
/lj {setlinejoin} bdef
/lw {setlinewidth} bdef
/ml {setmiterlimit} bdef
/ld {setdash} bdef
/m {neg moveto} bdef
/ct {6 2 roll neg 6 2 roll neg 6 2 roll neg curveto} bdef
/r {rotate} bdef
/t {neg translate} bdef
/s {scale} bdef
/sw {show} bdef
/gs {gsave} bdef
/gr {grestore} bdef
/f {findfont dup length dict begin
{1 index /FID ne {def} {pop pop} ifelse} forall /Encoding ISOLatin1Encoding def
currentdict end /NFont exch definefont pop /NFont findfont} bdef
/p {closepath} bdef
/sf {scalefont setfont} bdef
/ef {eofill}bdef
/pc {closepath stroke}bdef
/ps {stroke}bdef
/pum {matrix currentmatrix}bdef
/pom {setmatrix}bdef
/bs {/aString exch def /nXOfs exch def /nWidth exch def currentpoint nXOfs 0 rmoveto pum nWidth aString stringwidth pop div 1 scale aString show pom moveto} bdef
%%EndResource
%%EndProlog
%%BeginSetup
%%EndSetup
%%Page: 1 1
%%BeginPageSetup
%%EndPageSetup
pum
0.02838 0.02829 s 
0 -2792 t
/tm matrix currentmatrix def
tm setmatrix
-4656 -5748 t 
1 1 s 
gs
36 lw 1 lj 0.003 0.003 0.003 c 10649 8236 m  10580 8236 l  ps
10522 8225 m  10522 8156 l  ps
10522 8087 m  10522 8018 l  ps
10522 7949 m  10522 7880 l  ps
10522 7811 m  10522 7742 l  ps
10522 7674 m  10522 7605 l  ps
10522 7536 m  10522 7474 l  10529 7474 l  ps
10598 7474 m  10667 7474 l  ps
10736 7474 m  10776 7474 l  10776 7503 l  ps
10776 7572 m  10776 7641 l  ps
10776 7710 m  10776 7779 l  ps
10776 7848 m  10776 7917 l  ps
10776 7986 m  10776 8055 l  ps
10776 8124 m  10776 8193 l  ps
10750 8236 m  10681 8236 l  ps
gr
gs
0.933 0.441 0.363 c 10887 7684 m  10879 7675 10868 7669 10856 7669 ct 10762 7669 l 
10762 7997 l  10852 7997 l  10852 7959 10883 7929 10920 7929 ct 10958 7929 10988 7959 10988 7997 ct 
11019 7997 l  11033 7997 11044 7985 11044 7971 ct 11044 7808 l  11044 7793 11033 7782 11019 7782 ct 
10971 7782 l  10968 7782 10964 7780 10961 7777 ct 10887 7684 l  p ef
gr
gs
0.902 0.902 0.902 c 10762 7861 m  10390 7861 l  10390 7600 l  10390 7582 10404 7568 10422 7568 ct 
10730 7568 l  10748 7568 10762 7582 10762 7600 ct 10762 7861 l  10762 7861 l 
p ef
gr
gs
0.359 0.359 0.359 c 10920 8064 m  10883 8064 10852 8034 10852 7997 ct 10852 7959 10883 7929 10920 7929 ct 
10958 7929 10988 7959 10988 7997 ct 10988 8034 10958 8064 10920 8064 ct p ef
gr
gs
0.359 0.359 0.359 c 10514 8064 m  10476 8064 10446 8034 10446 7997 ct 10446 7959 10476 7929 10514 7929 ct 
10551 7929 10582 7959 10582 7997 ct 10582 8034 10551 8064 10514 8064 ct p ef
gr
gs
0.632 0.296 0.242 c 10390 7861 m  10390 7974 l  10390 7986 10400 7997 10412 7997 ct 
10446 7997 l  10446 7959 10476 7929 10514 7929 ct 10551 7929 10582 7959 10582 7997 ct 
10762 7997 l  10762 7861 l  10390 7861 l  10390 7861 l  p ef
gr
gs
0.699 0.699 0.699 c 10514 8019 m  10501 8019 10491 8009 10491 7997 ct 10491 7984 10501 7974 10514 7974 ct 
10526 7974 10536 7984 10536 7997 ct 10536 8009 10526 8019 10514 8019 ct p ef
gr
gs
0.699 0.699 0.699 c 10920 8019 m  10908 8019 10898 8009 10898 7997 ct 10898 7984 10908 7974 10920 7974 ct 
10933 7974 10943 7984 10943 7997 ct 10943 8009 10933 8019 10920 8019 ct p ef
gr
gs
0.902 0.902 0.902 c 10887 7684 m  10879 7675 10868 7669 10856 7669 ct 10830 7669 l 
10830 7729 l  10830 7740 10838 7748 10849 7748 ct 10938 7748 l  10887 7684 l 
10887 7684 l  p ef
gr
gs
0.937 0.445 0.367 c 10600 7692 m  10596 7692 10593 7688 10593 7684 ct 10593 7654 l 
10593 7650 10589 7647 10585 7647 ct 10555 7647 l  10551 7647 10548 7650 10548 7654 ct 
10548 7684 l  10548 7688 10544 7692 10540 7692 ct 10510 7692 l  10506 7692 10503 7695 10503 7699 ct 
10503 7729 l  10503 7734 10506 7737 10510 7737 ct 10540 7737 l  10544 7737 10548 7740 10548 7745 ct 
10548 7775 l  10548 7779 10551 7782 10555 7782 ct 10585 7782 l  10589 7782 10593 7779 10593 7775 ct 
10593 7745 l  10593 7740 10596 7737 10600 7737 ct 10630 7737 l  10635 7737 10638 7734 10638 7729 ct 
10638 7699 l  10638 7695 10635 7692 10630 7692 ct 10600 7692 l  p ef
gr
gs
0.632 0.296 0.242 c 11044 7872 m  11044 7850 l  10852 7850 l  10846 7850 10841 7855 10841 7861 ct 
10841 7867 10846 7872 10852 7872 ct 11044 7872 l  11044 7872 l  p ef
gr
gs
0.675 0.886 1.000 c 6561 8203 m  6523 8203 6487 8189 6460 8162 ct 6433 8135 6419 8099 6419 8061 ct 
6419 8023 6433 7988 6460 7961 ct 6806 7615 l  6833 7588 6868 7574 6906 7574 ct 
6944 7574 6980 7588 7007 7615 ct 7034 7642 7048 7678 7048 7716 ct 7048 7754 7034 7789 7007 7816 ct 
6661 8162 l  6634 8189 6599 8203 6561 8203 ct 6561 8203 l  p ef
gr
gs
0.613 0.863 1.000 c 7007 7615 m  6460 8162 l  6460 8162 l  6487 8189 6523 8203 6561 8203 ct 
6599 8203 6634 8189 6661 8162 ct 7007 7816 l  7034 7789 7048 7754 7048 7716 ct 
7048 7678 7034 7642 7007 7615 ct 7007 7615 l  7007 7615 l  p ef
gr
gs
0.917 0.265 0.339 c 7048 7716 m  7048 7678 7034 7642 7007 7615 ct 6980 7588 6944 7574 6906 7574 ct 
6868 7574 6833 7588 6806 7615 ct 6633 7788 l  6834 7989 l  7007 7816 l  7034 7789 7048 7754 7048 7716 ct 
7048 7716 l  p ef
gr
gs
0.867 0.140 0.207 c 7009 7617 m  6735 7890 l  6834 7989 l  7007 7816 l 
7034 7789 7048 7754 7048 7716 ct 7048 7679 7034 7644 7009 7617 ct 7009 7617 l 
p ef
gr
gs
1.000 1.000 1.000 c 6476 8109 m  6449 8083 6449 8040 6476 8013 ct 6609 7880 l 
6635 7906 l  6502 8040 l  6490 8052 6490 8071 6502 8083 ct 6476 8109 l  6476 8109 l 
p ef
gr
gs
0.976 0.433 0.433 c 6751 7790 m  6725 7764 l  6858 7631 l  6885 7604 6928 7604 6954 7631 ct 
6928 7657 l  6916 7645 6897 7645 6885 7657 ct 6751 7790 l  6751 7790 l  p ef
gr
gs
0.867 0.210 0.183 c 9262 7762 m  9121 7903 l  9054 7970 9054 8079 9121 8146 ct 
9121 8146 l  9188 8213 9297 8213 9364 8146 ct 9505 8005 l  9262 7762 l  9262 7762 l 
p ef
gr
gs
0.921 0.730 0.089 c 9505 8005 m  9644 7866 l  9711 7799 9711 7690 9644 7623 ct 
9644 7623 l  9577 7556 9468 7556 9401 7623 ct 9262 7762 l  9505 8005 l  9505 8005 l 
p ef
gr
gs
0.957 0.406 0.406 c 9308 7807 m  9124 7991 l  9117 7998 9117 8008 9124 8014 ct 
9127 8017 9131 8019 9135 8019 ct 9139 8019 9143 8017 9146 8014 ct 9331 7830 l 
9308 7807 l  9308 7807 l  p ef
gr
gs
0.988 0.843 0.441 c 9330 7830 m  9502 7659 l  9508 7653 9508 7643 9502 7636 ct 
9495 7630 9485 7630 9479 7636 ct 9308 7807 l  9330 7830 l  9330 7830 l  p ef
gr
gs
36 lw 1 lj 0.003 0.003 0.003 c 4682 8363 m  11160 8363 l  ps
gr
gs
0.003 0.003 0.003 c 11665 8363 m  11137 8187 l  11137 8539 l  11665 8363 l 
p ef
gr
gs
36 lw 1 lj 0.003 0.003 0.003 c 6805 8236 m  6792 8236 l  6723 8236 l  ps
6654 8236 m  6585 8236 l  ps
6516 8236 m  6447 8236 l  ps
6378 8236 m  6309 8236 l  ps
6240 8236 m  6171 8236 l  ps
6102 8236 m  6033 8236 l  ps
5964 8236 m  5895 8236 l  ps
5826 8236 m  5757 8236 l  ps
5688 8236 m  5619 8236 l  ps
5550 8236 m  5481 8236 l  ps
5413 8236 m  5344 8236 l  ps
5275 8236 m  5207 8236 l  ps
5205 8169 m  5205 8100 l  ps
5205 8031 m  5205 7962 l  ps
5205 7893 m  5205 7824 l  ps
5205 7755 m  5205 7686 l  ps
5205 7617 m  5205 7548 l  ps
5205 7479 m  5205 7474 l  5268 7474 l  ps
5337 7474 m  5406 7474 l  ps
5475 7474 m  5544 7474 l  ps
5613 7474 m  5681 7474 l  ps
5750 7474 m  5819 7474 l  ps
5888 7474 m  5957 7474 l  ps
6026 7474 m  6095 7474 l  ps
6164 7474 m  6233 7474 l  ps
6302 7474 m  6371 7474 l  ps
6440 7474 m  6509 7474 l  ps
6578 7474 m  6647 7474 l  ps
6716 7474 m  6785 7474 l  ps
6854 7474 m  6923 7474 l  ps
6992 7474 m  7060 7474 l  ps
7129 7474 m  7198 7474 l  ps
7267 7474 m  7336 7474 l  ps
7405 7474 m  7474 7474 l  ps
7543 7474 m  7612 7474 l  ps
7681 7474 m  7750 7474 l  ps
7819 7474 m  7888 7474 l  ps
7957 7474 m  8026 7474 l  ps
8095 7474 m  8164 7474 l  ps
8233 7474 m  8302 7474 l  ps
8370 7474 m  8379 7474 l  8379 7534 l  ps
8379 7603 m  8379 7672 l  ps
8379 7741 m  8379 7810 l  ps
8379 7879 m  8379 7948 l  ps
8379 8017 m  8379 8086 l  ps
8379 8155 m  8379 8224 l  ps
8322 8236 m  8253 8236 l  ps
8184 8236 m  8115 8236 l  ps
8046 8236 m  7977 8236 l  ps
7908 8236 m  7839 8236 l  ps
7771 8236 m  7702 8236 l  ps
7633 8236 m  7564 8236 l  ps
7495 8236 m  7426 8236 l  ps
7357 8236 m  7288 8236 l  ps
7219 8236 m  7150 8236 l  ps
7081 8236 m  7012 8236 l  ps
6943 8236 m  6874 8236 l  ps
gr
gs
36 lw 1 lj 0.003 0.003 0.003 c 9400 8236 m  9379 8236 l  9310 8236 l  ps
9241 8236 m  9172 8236 l  ps
9103 8236 m  9034 8236 l  ps
8965 8236 m  8896 8236 l  ps
8827 8236 m  8759 8236 l  ps
8691 8236 m  8622 8236 l  ps
8618 8171 m  8618 8102 l  ps
8618 8033 m  8618 7964 l  ps
8618 7895 m  8618 7826 l  ps
8618 7757 m  8618 7688 l  ps
8618 7619 m  8618 7550 l  ps
8618 7481 m  8618 7474 l  8680 7474 l  ps
8749 7474 m  8817 7474 l  ps
8886 7474 m  8955 7474 l  ps
9024 7474 m  9093 7474 l  ps
9162 7474 m  9230 7474 l  ps
9299 7474 m  9368 7474 l  ps
9437 7474 m  9506 7474 l  ps
9575 7474 m  9644 7474 l  ps
9713 7474 m  9782 7474 l  ps
9851 7474 m  9920 7474 l  ps
9989 7474 m  10058 7474 l  ps
10127 7474 m  10141 7474 l  10141 7529 l  ps
10141 7598 m  10141 7667 l  ps
10141 7736 m  10141 7805 l  ps
10141 7874 m  10141 7942 l  ps
10141 8011 m  10141 8080 l  ps
10141 8149 m  10141 8218 l  ps
10090 8236 m  10021 8236 l  ps
9952 8236 m  9883 8236 l  ps
9814 8236 m  9745 8236 l  ps
9676 8236 m  9607 8236 l  ps
9538 8236 m  9469 8236 l  ps
gr
gs
0.933 0.441 0.363 c 10879 5865 m  10871 5856 10860 5850 10848 5850 ct 10754 5850 l 
10754 6178 l  10844 6178 l  10844 6140 10875 6110 10912 6110 ct 10950 6110 10980 6140 10980 6178 ct 
11011 6178 l  11025 6178 11036 6166 11036 6152 ct 11036 5989 l  11036 5974 11025 5963 11011 5963 ct 
10963 5963 l  10960 5963 10956 5961 10953 5958 ct 10879 5865 l  p ef
gr
gs
0.902 0.902 0.902 c 10754 6042 m  10382 6042 l  10382 5781 l  10382 5763 10396 5749 10414 5749 ct 
10722 5749 l  10740 5749 10754 5763 10754 5781 ct 10754 6042 l  10754 6042 l 
p ef
gr
gs
0.359 0.359 0.359 c 10912 6245 m  10875 6245 10844 6215 10844 6178 ct 10844 6140 10875 6110 10912 6110 ct 
10950 6110 10980 6140 10980 6178 ct 10980 6215 10950 6245 10912 6245 ct p ef
gr
gs
0.359 0.359 0.359 c 10506 6245 m  10468 6245 10438 6215 10438 6178 ct 10438 6140 10468 6110 10506 6110 ct 
10543 6110 10574 6140 10574 6178 ct 10574 6215 10543 6245 10506 6245 ct p ef
gr
gs
0.632 0.296 0.242 c 10382 6042 m  10382 6155 l  10382 6167 10392 6178 10404 6178 ct 
10438 6178 l  10438 6140 10468 6110 10506 6110 ct 10543 6110 10574 6140 10574 6178 ct 
10754 6178 l  10754 6042 l  10382 6042 l  10382 6042 l  p ef
gr
gs
0.699 0.699 0.699 c 10506 6200 m  10493 6200 10483 6190 10483 6178 ct 10483 6165 10493 6155 10506 6155 ct 
10518 6155 10528 6165 10528 6178 ct 10528 6190 10518 6200 10506 6200 ct p ef
gr
gs
0.699 0.699 0.699 c 10912 6200 m  10900 6200 10890 6190 10890 6178 ct 10890 6165 10900 6155 10912 6155 ct 
10925 6155 10935 6165 10935 6178 ct 10935 6190 10925 6200 10912 6200 ct p ef
gr
gs
0.902 0.902 0.902 c 10879 5865 m  10871 5856 10860 5850 10848 5850 ct 10822 5850 l 
10822 5910 l  10822 5921 10830 5929 10841 5929 ct 10930 5929 l  10879 5865 l 
10879 5865 l  p ef
gr
gs
0.937 0.445 0.367 c 10592 5873 m  10588 5873 10585 5869 10585 5865 ct 10585 5835 l 
10585 5831 10581 5828 10577 5828 ct 10547 5828 l  10543 5828 10540 5831 10540 5835 ct 
10540 5865 l  10540 5869 10536 5873 10532 5873 ct 10502 5873 l  10498 5873 10495 5876 10495 5880 ct 
10495 5910 l  10495 5915 10498 5918 10502 5918 ct 10532 5918 l  10536 5918 10540 5921 10540 5926 ct 
10540 5956 l  10540 5960 10543 5963 10547 5963 ct 10577 5963 l  10581 5963 10585 5960 10585 5956 ct 
10585 5926 l  10585 5921 10588 5918 10592 5918 ct 10622 5918 l  10627 5918 10630 5915 10630 5910 ct 
10630 5880 l  10630 5876 10627 5873 10622 5873 ct 10592 5873 l  p ef
gr
gs
0.632 0.296 0.242 c 11036 6053 m  11036 6031 l  10844 6031 l  10838 6031 10833 6036 10833 6042 ct 
10833 6048 10838 6053 10844 6053 ct 11036 6053 l  11036 6053 l  p ef
gr
gs
0.675 0.886 1.000 c 5353 6384 m  5315 6384 5279 6370 5253 6343 ct 5226 6316 5212 6280 5212 6242 ct 
5212 6204 5226 6169 5253 6142 ct 5598 5796 l  5625 5769 5660 5755 5698 5755 ct 
5736 5755 5772 5769 5799 5796 ct 5826 5823 5840 5859 5840 5897 ct 5840 5935 5826 5970 5799 5997 ct 
5453 6343 l  5426 6370 5391 6384 5353 6384 ct 5353 6384 l  p ef
gr
gs
0.613 0.863 1.000 c 5799 5796 m  5253 6343 l  5253 6343 l  5279 6370 5315 6384 5353 6384 ct 
5391 6384 5426 6370 5453 6343 ct 5799 5997 l  5826 5970 5840 5935 5840 5897 ct 
5840 5859 5826 5823 5799 5796 ct 5799 5796 l  5799 5796 l  p ef
gr
gs
0.917 0.265 0.339 c 5840 5897 m  5840 5859 5826 5823 5799 5796 ct 5772 5769 5736 5755 5698 5755 ct 
5660 5755 5625 5769 5598 5796 ct 5425 5969 l  5626 6170 l  5799 5997 l  5826 5970 5840 5935 5840 5897 ct 
5840 5897 l  p ef
gr
gs
0.867 0.140 0.207 c 5801 5798 m  5527 6071 l  5626 6170 l  5799 5997 l 
5826 5970 5840 5935 5840 5897 ct 5840 5860 5826 5825 5801 5798 ct 5801 5798 l 
p ef
gr
gs
1.000 1.000 1.000 c 5268 6290 m  5242 6264 5242 6221 5268 6194 ct 5401 6061 l 
5427 6087 l  5294 6221 l  5282 6233 5282 6252 5294 6264 ct 5268 6290 l  5268 6290 l 
p ef
gr
gs
0.976 0.433 0.433 c 5543 5971 m  5517 5945 l  5650 5812 l  5677 5785 5720 5785 5746 5812 ct 
5720 5838 l  5708 5826 5689 5826 5677 5838 ct 5543 5971 l  5543 5971 l  p ef
gr
gs
0.867 0.210 0.183 c 9654 5943 m  9513 6084 l  9446 6151 9446 6260 9513 6327 ct 
9513 6327 l  9580 6394 9689 6394 9756 6327 ct 9897 6186 l  9654 5943 l  9654 5943 l 
p ef
gr
gs
0.921 0.730 0.089 c 9897 6186 m  10036 6047 l  10103 5980 10103 5871 10036 5804 ct 
10036 5804 l  9969 5737 9860 5737 9793 5804 ct 9654 5943 l  9897 6186 l  9897 6186 l 
p ef
gr
gs
0.957 0.406 0.406 c 9700 5988 m  9516 6172 l  9509 6179 9509 6189 9516 6195 ct 
9519 6198 9523 6200 9527 6200 ct 9531 6200 9535 6198 9538 6195 ct 9723 6011 l 
9700 5988 l  9700 5988 l  p ef
gr
gs
0.988 0.843 0.441 c 9722 6011 m  9894 5840 l  9900 5834 9900 5824 9894 5817 ct 
9887 5811 9877 5811 9871 5817 ct 9700 5988 l  9722 6011 l  9722 6011 l  p ef
gr
gs
36 lw 1 lj 0.003 0.003 0.003 c 4674 6544 m  11152 6544 l  ps
gr
gs
0.003 0.003 0.003 c 11657 6544 m  11129 6368 l  11129 6720 l  11657 6544 l 
p ef
gr
gs
0.867 0.210 0.183 c 8855 5944 m  8715 6085 l  8648 6152 8648 6261 8715 6328 ct 
8715 6328 l  8781 6395 8890 6395 8957 6328 ct 9098 6187 l  8855 5944 l  8855 5944 l 
p ef
gr
gs
0.921 0.730 0.089 c 9098 6187 m  9237 6048 l  9304 5981 9304 5872 9237 5805 ct 
9237 5805 l  9170 5738 9061 5738 8994 5805 ct 8855 5944 l  9098 6187 l  9098 6187 l 
p ef
gr
gs
0.957 0.406 0.406 c 8901 5989 m  8718 6173 l  8711 6180 8711 6190 8718 6196 ct 
8721 6199 8725 6201 8729 6201 ct 8733 6201 8737 6199 8740 6196 ct 8924 6012 l 
8901 5989 l  8901 5989 l  p ef
gr
gs
0.988 0.843 0.441 c 8923 6012 m  9095 5841 l  9101 5835 9101 5825 9095 5818 ct 
9088 5812 9078 5812 9072 5818 ct 8901 5989 l  8923 6012 l  8923 6012 l  p ef
gr
gs
0.675 0.886 1.000 c 5854 6385 m  5816 6385 5780 6371 5753 6344 ct 5726 6317 5712 6281 5712 6243 ct 
5712 6205 5726 6170 5753 6143 ct 6099 5797 l  6126 5770 6161 5756 6199 5756 ct 
6237 5756 6273 5770 6300 5797 ct 6327 5824 6341 5860 6341 5898 ct 6341 5936 6327 5971 6300 5998 ct 
5954 6344 l  5927 6371 5892 6385 5854 6385 ct 5854 6385 l  p ef
gr
gs
0.613 0.863 1.000 c 6300 5797 m  5753 6344 l  5753 6344 l  5780 6371 5816 6385 5854 6385 ct 
5892 6385 5927 6371 5954 6344 ct 6300 5998 l  6327 5971 6341 5936 6341 5898 ct 
6341 5860 6327 5824 6300 5797 ct 6300 5797 l  6300 5797 l  p ef
gr
gs
0.917 0.265 0.339 c 6341 5898 m  6341 5860 6327 5824 6300 5797 ct 6273 5770 6237 5756 6199 5756 ct 
6161 5756 6126 5770 6099 5797 ct 5926 5970 l  6127 6171 l  6300 5998 l  6327 5971 6341 5936 6341 5898 ct 
6341 5898 l  p ef
gr
gs
0.867 0.140 0.207 c 6302 5799 m  6028 6072 l  6127 6171 l  6300 5998 l 
6327 5971 6341 5936 6341 5898 ct 6341 5861 6327 5826 6302 5799 ct 6302 5799 l 
p ef
gr
gs
1.000 1.000 1.000 c 5769 6291 m  5742 6265 5742 6222 5769 6195 ct 5902 6062 l 
5928 6088 l  5795 6222 l  5783 6234 5783 6253 5795 6265 ct 5769 6291 l  5769 6291 l 
p ef
gr
gs
0.976 0.433 0.433 c 6044 5972 m  6018 5946 l  6151 5813 l  6178 5786 6221 5786 6247 5813 ct 
6221 5839 l  6209 5827 6190 5827 6178 5839 ct 6044 5972 l  6044 5972 l  p ef
gr
gs
0.675 0.886 1.000 c 6554 6385 m  6516 6385 6480 6371 6453 6344 ct 6426 6317 6412 6281 6412 6243 ct 
6412 6205 6426 6170 6453 6143 ct 6799 5797 l  6826 5770 6861 5756 6899 5756 ct 
6937 5756 6973 5770 7000 5797 ct 7027 5824 7041 5860 7041 5898 ct 7041 5936 7027 5971 7000 5998 ct 
6654 6344 l  6627 6371 6592 6385 6554 6385 ct 6554 6385 l  p ef
gr
gs
0.613 0.863 1.000 c 7000 5797 m  6453 6344 l  6453 6344 l  6480 6371 6516 6385 6554 6385 ct 
6592 6385 6627 6371 6654 6344 ct 7000 5998 l  7027 5971 7041 5936 7041 5898 ct 
7041 5860 7027 5824 7000 5797 ct 7000 5797 l  7000 5797 l  p ef
gr
gs
0.917 0.265 0.339 c 7041 5898 m  7041 5860 7027 5824 7000 5797 ct 6973 5770 6937 5756 6899 5756 ct 
6861 5756 6826 5770 6799 5797 ct 6626 5970 l  6827 6171 l  7000 5998 l  7027 5971 7041 5936 7041 5898 ct 
7041 5898 l  p ef
gr
gs
0.867 0.140 0.207 c 7002 5799 m  6728 6072 l  6827 6171 l  7000 5998 l 
7027 5971 7041 5936 7041 5898 ct 7041 5861 7027 5826 7002 5799 ct 7002 5799 l 
p ef
gr
gs
1.000 1.000 1.000 c 6469 6291 m  6442 6265 6442 6222 6469 6195 ct 6602 6062 l 
6628 6088 l  6495 6222 l  6483 6234 6483 6253 6495 6265 ct 6469 6291 l  6469 6291 l 
p ef
gr
gs
0.976 0.433 0.433 c 6744 5972 m  6718 5946 l  6851 5813 l  6878 5786 6921 5786 6947 5813 ct 
6921 5839 l  6909 5827 6890 5827 6878 5839 ct 6744 5972 l  6744 5972 l  p ef
gr
gs
0.675 0.886 1.000 c 7454 6385 m  7416 6385 7380 6371 7353 6344 ct 7326 6317 7312 6281 7312 6243 ct 
7312 6205 7326 6170 7353 6143 ct 7699 5797 l  7726 5770 7761 5756 7799 5756 ct 
7837 5756 7873 5770 7900 5797 ct 7927 5824 7941 5860 7941 5898 ct 7941 5936 7927 5971 7900 5998 ct 
7554 6344 l  7527 6371 7492 6385 7454 6385 ct 7454 6385 l  p ef
gr
gs
0.613 0.863 1.000 c 7900 5797 m  7353 6344 l  7353 6344 l  7380 6371 7416 6385 7454 6385 ct 
7492 6385 7527 6371 7554 6344 ct 7900 5998 l  7927 5971 7941 5936 7941 5898 ct 
7941 5860 7927 5824 7900 5797 ct 7900 5797 l  7900 5797 l  p ef
gr
gs
0.917 0.265 0.339 c 7941 5898 m  7941 5860 7927 5824 7900 5797 ct 7873 5770 7837 5756 7799 5756 ct 
7761 5756 7726 5770 7699 5797 ct 7526 5970 l  7727 6171 l  7900 5998 l  7927 5971 7941 5936 7941 5898 ct 
7941 5898 l  p ef
gr
gs
0.867 0.140 0.207 c 7902 5799 m  7628 6072 l  7727 6171 l  7900 5998 l 
7927 5971 7941 5936 7941 5898 ct 7941 5861 7927 5826 7902 5799 ct 7902 5799 l 
p ef
gr
gs
1.000 1.000 1.000 c 7369 6291 m  7342 6265 7342 6222 7369 6195 ct 7502 6062 l 
7528 6088 l  7395 6222 l  7383 6234 7383 6253 7395 6265 ct 7369 6291 l  7369 6291 l 
p ef
gr
gs
0.976 0.433 0.433 c 7644 5972 m  7618 5946 l  7751 5813 l  7778 5786 7821 5786 7847 5813 ct 
7821 5839 l  7809 5827 7790 5827 7778 5839 ct 7644 5972 l  7644 5972 l  p ef
gr
gs
0.675 0.886 1.000 c 7854 6385 m  7816 6385 7780 6371 7753 6344 ct 7726 6317 7712 6281 7712 6243 ct 
7712 6205 7726 6170 7753 6143 ct 8099 5797 l  8126 5770 8161 5756 8199 5756 ct 
8237 5756 8273 5770 8300 5797 ct 8327 5824 8341 5860 8341 5898 ct 8341 5936 8327 5971 8300 5998 ct 
7954 6344 l  7927 6371 7892 6385 7854 6385 ct 7854 6385 l  p ef
gr
gs
0.613 0.863 1.000 c 8300 5797 m  7753 6344 l  7753 6344 l  7780 6371 7816 6385 7854 6385 ct 
7892 6385 7927 6371 7954 6344 ct 8300 5998 l  8327 5971 8341 5936 8341 5898 ct 
8341 5860 8327 5824 8300 5797 ct 8300 5797 l  8300 5797 l  p ef
gr
gs
0.917 0.265 0.339 c 8341 5898 m  8341 5860 8327 5824 8300 5797 ct 8273 5770 8237 5756 8199 5756 ct 
8161 5756 8126 5770 8099 5797 ct 7926 5970 l  8127 6171 l  8300 5998 l  8327 5971 8341 5936 8341 5898 ct 
8341 5898 l  p ef
gr
gs
0.867 0.140 0.207 c 8302 5799 m  8028 6072 l  8127 6171 l  8300 5998 l 
8327 5971 8341 5936 8341 5898 ct 8341 5861 8327 5826 8302 5799 ct 8302 5799 l 
p ef
gr
gs
1.000 1.000 1.000 c 7769 6291 m  7742 6265 7742 6222 7769 6195 ct 7902 6062 l 
7928 6088 l  7795 6222 l  7783 6234 7783 6253 7795 6265 ct 7769 6291 l  7769 6291 l 
p ef
gr
gs
0.976 0.433 0.433 c 8044 5972 m  8018 5946 l  8151 5813 l  8178 5786 8221 5786 8247 5813 ct 
8221 5839 l  8209 5827 8190 5827 8178 5839 ct 8044 5972 l  8044 5972 l  p ef
gr
0 2792 t 
pom
count op_count sub {pop} repeat countdictstack dict_count sub {end} repeat b4_inc_state restore
%%PageTrailer
%%Trailer
%%EOF
