%!PS-Adobe-3.0 EPSF-3.0 
%%BoundingBox: 0 0 270 229
%%Pages: 0
%%Creator: LibreOffice 6.0
%%Title: none
%%CreationDate: none
%%LanguageLevel: 2
%%EndComments
%%BeginProlog
%%BeginResource: procset SDRes-Prolog 1.0 0
/b4_inc_state save def
/dict_count countdictstack def
/op_count count 1 sub def
userdict begin
0 setgray 0 setlinecap 1 setlinewidth 0 setlinejoin 10 setmiterlimit[] 0 setdash newpath
/languagelevel where {pop languagelevel 1 ne {false setstrokeadjust false setoverprint} if} if
/bdef {bind def} bind def
/c {setrgbcolor} bdef
/l {neg lineto} bdef
/rl {neg rlineto} bdef
/lc {setlinecap} bdef
/lj {setlinejoin} bdef
/lw {setlinewidth} bdef
/ml {setmiterlimit} bdef
/ld {setdash} bdef
/m {neg moveto} bdef
/ct {6 2 roll neg 6 2 roll neg 6 2 roll neg curveto} bdef
/r {rotate} bdef
/t {neg translate} bdef
/s {scale} bdef
/sw {show} bdef
/gs {gsave} bdef
/gr {grestore} bdef
/f {findfont dup length dict begin
{1 index /FID ne {def} {pop pop} ifelse} forall /Encoding ISOLatin1Encoding def
currentdict end /NFont exch definefont pop /NFont findfont} bdef
/p {closepath} bdef
/sf {scalefont setfont} bdef
/ef {eofill}bdef
/pc {closepath stroke}bdef
/ps {stroke}bdef
/pum {matrix currentmatrix}bdef
/pom {setmatrix}bdef
/bs {/aString exch def /nXOfs exch def /nWidth exch def currentpoint nXOfs 0 rmoveto pum nWidth aString stringwidth pop div 1 scale aString show pom moveto} bdef
%%EndResource
%%EndProlog
%%BeginSetup
%%EndSetup
%%Page: 1 1
%%BeginPageSetup
%%EndPageSetup
pum
0.0283 0.02836 s 
0 -8074 t
/tm matrix currentmatrix def
tm setmatrix
-10769 -4993 t 
1 1 s 
gs
36 lw 1 lj 0.003 0.003 0.003 c 14850 12537 m  14802 12537 l  14733 12537 l 
ps
14664 12537 m  14595 12537 l  ps
14526 12537 m  14457 12537 l  ps
14388 12537 m  14319 12537 l  ps
14250 12537 m  14181 12537 l  ps
14112 12537 m  14043 12537 l  ps
13974 12537 m  13905 12537 l  ps
13855 12518 m  13855 12449 l  ps
13855 12380 m  13855 12311 l  ps
13855 12242 m  13855 12173 l  ps
13855 12105 m  13855 12036 l  ps
13855 11967 m  13855 11898 l  ps
13855 11829 m  13855 11760 l  ps
13855 11691 m  13855 11622 l  ps
13855 11553 m  13855 11510 l  13881 11510 l  ps
13950 11510 m  14019 11510 l  ps
14088 11510 m  14157 11510 l  ps
14226 11510 m  14295 11510 l  ps
14364 11510 m  14433 11510 l  ps
14502 11510 m  14571 11510 l  ps
14640 11510 m  14708 11510 l  ps
14777 11510 m  14846 11510 l  ps
14915 11510 m  14984 11510 l  ps
15053 11510 m  15122 11510 l  ps
15191 11510 m  15260 11510 l  ps
15329 11510 m  15398 11510 l  ps
15467 11510 m  15536 11510 l  ps
15605 11510 m  15674 11510 l  ps
15743 11510 m  15748 11510 l  15748 11574 l  ps
15748 11643 m  15748 11712 l  ps
15748 11781 m  15748 11849 l  ps
15748 11918 m  15748 11987 l  ps
15748 12056 m  15748 12125 l  ps
15748 12194 m  15748 12263 l  ps
15748 12332 m  15748 12401 l  ps
15748 12470 m  15748 12537 l  15746 12537 l  ps
15677 12537 m  15608 12537 l  ps
15539 12537 m  15470 12537 l  ps
15401 12537 m  15332 12537 l  ps
15263 12537 m  15194 12537 l  ps
15125 12537 m  15057 12537 l  ps
14988 12537 m  14919 12537 l  ps
gr
gs
0.933 0.441 0.363 c 15086 11794 m  15076 11782 15061 11775 15045 11775 ct 
14918 11775 l  14918 12215 l  15040 12215 l  15040 12165 15081 12124 15131 12124 ct 
15181 12124 15222 12165 15222 12215 ct 15264 12215 l  15283 12215 15298 12200 15298 12181 ct 
15298 11961 l  15298 11942 15283 11927 15264 11927 ct 15200 11927 l  15195 11927 15190 11924 15187 11920 ct 
15086 11794 l  p ef
gr
gs
0.902 0.902 0.902 c 14918 12033 m  14417 12033 l  14417 11682 l  14417 11657 14436 11638 14461 11638 ct 
14875 11638 l  14899 11638 14918 11657 14918 11682 ct 14918 12033 l  14918 12033 l 
p ef
gr
gs
0.359 0.359 0.359 c 15131 12306 m  15081 12306 15040 12266 15040 12215 ct 
15040 12165 15081 12124 15131 12124 ct 15181 12124 15222 12165 15222 12215 ct 
15222 12266 15181 12306 15131 12306 ct p ef
gr
gs
0.359 0.359 0.359 c 14584 12306 m  14534 12306 14493 12266 14493 12215 ct 
14493 12165 14534 12124 14584 12124 ct 14634 12124 14675 12165 14675 12215 ct 
14675 12266 14634 12306 14584 12306 ct p ef
gr
gs
0.632 0.296 0.242 c 14417 12033 m  14417 12185 l  14417 12202 14430 12215 14447 12215 ct 
14493 12215 l  14493 12165 14534 12124 14584 12124 ct 14634 12124 14675 12165 14675 12215 ct 
14918 12215 l  14918 12033 l  14417 12033 l  14417 12033 l  p ef
gr
gs
0.699 0.699 0.699 c 14584 12246 m  14567 12246 14554 12232 14554 12215 ct 
14554 12198 14567 12185 14584 12185 ct 14601 12185 14614 12198 14614 12215 ct 
14614 12232 14601 12246 14584 12246 ct p ef
gr
gs
0.699 0.699 0.699 c 15131 12246 m  15114 12246 15101 12232 15101 12215 ct 
15101 12198 15114 12185 15131 12185 ct 15148 12185 15161 12198 15161 12215 ct 
15161 12232 15148 12246 15131 12246 ct p ef
gr
gs
0.902 0.902 0.902 c 15086 11794 m  15076 11782 15061 11775 15045 11775 ct 
15009 11775 l  15009 11856 l  15009 11870 15021 11881 15035 11881 ct 15155 11881 l 
15086 11794 l  15086 11794 l  p ef
gr
gs
0.937 0.445 0.367 c 14701 11805 m  14695 11805 14690 11800 14690 11795 ct 
14690 11754 l  14690 11749 14686 11744 14680 11744 ct 14640 11744 l  14634 11744 14630 11749 14630 11754 ct 
14630 11795 l  14630 11800 14625 11805 14619 11805 ct 14579 11805 l  14573 11805 14569 11810 14569 11815 ct 
14569 11856 l  14569 11861 14573 11866 14579 11866 ct 14619 11866 l  14625 11866 14630 11870 14630 11876 ct 
14630 11916 l  14630 11922 14634 11927 14640 11927 ct 14680 11927 l  14686 11927 14690 11922 14690 11916 ct 
14690 11876 l  14690 11870 14695 11866 14701 11866 ct 14741 11866 l  14747 11866 14751 11861 14751 11856 ct 
14751 11815 l  14751 11810 14747 11805 14741 11805 ct 14701 11805 l  p ef
gr
gs
0.632 0.296 0.242 c 15298 12048 m  15298 12018 l  15040 12018 l  15031 12018 15025 12025 15025 12033 ct 
15025 12041 15031 12048 15040 12048 ct 15298 12048 l  15298 12048 l  p ef
gr
gs
52.98788 lw 1 lj 0.878 0.160 0.019 c 13856 11312 m  15737 12680 l  ps
gr
gs
52.98788 lw 1 lj 0.878 0.160 0.019 c 13856 12680 m  15909 11312 l  ps
gr
gs
0.933 0.441 0.363 c 19258 11805 m  19248 11793 19233 11786 19217 11786 ct 
19090 11786 l  19090 12226 l  19212 12226 l  19212 12176 19252 12135 19303 12135 ct 
19353 12135 19394 12176 19394 12226 ct 19436 12226 l  19455 12226 19470 12211 19470 12192 ct 
19470 11972 l  19470 11953 19455 11938 19436 11938 ct 19372 11938 l  19367 11938 19362 11935 19358 11931 ct 
19258 11805 l  p ef
gr
gs
0.902 0.902 0.902 c 19090 12044 m  18588 12044 l  18588 11693 l  18588 11668 18607 11649 18632 11649 ct 
19046 11649 l  19070 11649 19090 11668 19090 11693 ct 19090 12044 l  19090 12044 l 
p ef
gr
gs
0.359 0.359 0.359 c 19303 12317 m  19252 12317 19212 12277 19212 12226 ct 
19212 12176 19252 12135 19303 12135 ct 19353 12135 19394 12176 19394 12226 ct 
19394 12277 19353 12317 19303 12317 ct p ef
gr
gs
0.359 0.359 0.359 c 18755 12317 m  18705 12317 18664 12277 18664 12226 ct 
18664 12176 18705 12135 18755 12135 ct 18806 12135 18846 12176 18846 12226 ct 
18846 12277 18806 12317 18755 12317 ct p ef
gr
gs
0.632 0.296 0.242 c 18588 12044 m  18588 12196 l  18588 12213 18601 12226 18618 12226 ct 
18664 12226 l  18664 12176 18705 12135 18755 12135 ct 18806 12135 18846 12176 18846 12226 ct 
19090 12226 l  19090 12044 l  18588 12044 l  18588 12044 l  p ef
gr
gs
0.699 0.699 0.699 c 18755 12257 m  18738 12257 18725 12243 18725 12226 ct 
18725 12209 18738 12196 18755 12196 ct 18772 12196 18786 12209 18786 12226 ct 
18786 12243 18772 12257 18755 12257 ct p ef
gr
gs
0.699 0.699 0.699 c 19303 12257 m  19286 12257 19272 12243 19272 12226 ct 
19272 12209 19286 12196 19303 12196 ct 19320 12196 19333 12209 19333 12226 ct 
19333 12243 19320 12257 19303 12257 ct p ef
gr
gs
0.902 0.902 0.902 c 19258 11805 m  19248 11793 19233 11786 19217 11786 ct 
19181 11786 l  19181 11867 l  19181 11881 19192 11892 19206 11892 ct 19327 11892 l 
19258 11805 l  19258 11805 l  p ef
gr
gs
0.937 0.445 0.367 c 18872 11816 m  18866 11816 18862 11811 18862 11806 ct 
18862 11765 l  18862 11760 18857 11755 18852 11755 ct 18811 11755 l  18805 11755 18801 11760 18801 11765 ct 
18801 11806 l  18801 11811 18796 11816 18791 11816 ct 18750 11816 l  18745 11816 18740 11821 18740 11826 ct 
18740 11867 l  18740 11872 18745 11877 18750 11877 ct 18791 11877 l  18796 11877 18801 11881 18801 11887 ct 
18801 11927 l  18801 11933 18805 11938 18811 11938 ct 18852 11938 l  18857 11938 18862 11933 18862 11927 ct 
18862 11887 l  18862 11881 18866 11877 18872 11877 ct 18912 11877 l  18918 11877 18923 11872 18923 11867 ct 
18923 11826 l  18923 11821 18918 11816 18912 11816 ct 18872 11816 l  p ef
gr
gs
0.632 0.296 0.242 c 19470 12059 m  19470 12029 l  19212 12029 l  19203 12029 19196 12036 19196 12044 ct 
19196 12052 19203 12059 19212 12059 ct 19470 12059 l  19470 12059 l  p ef
gr
gs
0.675 0.886 1.000 c 12351 12505 m  12300 12505 12252 12485 12216 12449 ct 
12180 12413 12160 12365 12160 12314 ct 12160 12263 12180 12215 12216 12179 ct 
12682 11713 l  12718 11677 12766 11657 12817 11657 ct 12868 11657 12916 11677 12952 11713 ct 
12988 11749 13008 11797 13008 11848 ct 13008 11899 12988 11947 12952 11983 ct 
12486 12449 l  12450 12485 12402 12505 12351 12505 ct 12351 12505 l  p ef
gr
gs
0.613 0.863 1.000 c 12952 11713 m  12216 12449 l  12216 12449 l  12252 12485 12300 12505 12351 12505 ct 
12402 12505 12450 12485 12486 12449 ct 12952 11983 l  12988 11947 13008 11899 13008 11848 ct 
13008 11797 12988 11749 12952 11713 ct 12952 11713 l  12952 11713 l  p ef
gr
gs
0.917 0.265 0.339 c 13008 11848 m  13008 11797 12988 11749 12952 11713 ct 
12916 11677 12868 11657 12817 11657 ct 12766 11657 12718 11677 12682 11713 ct 
12449 11946 l  12719 12216 l  12952 11983 l  12988 11947 13008 11899 13008 11848 ct 
13008 11848 l  p ef
gr
gs
0.867 0.140 0.207 c 12955 11715 m  12586 12083 l  12719 12216 l  12952 11983 l 
12988 11947 13008 11899 13008 11848 ct 13008 11798 12989 11751 12955 11715 ct 
12955 11715 l  p ef
gr
gs
1.000 1.000 1.000 c 12237 12379 m  12201 12343 12201 12285 12237 12249 ct 
12416 12069 l  12452 12105 l  12272 12284 l  12256 12301 12256 12327 12272 12343 ct 
12237 12379 l  12237 12379 l  p ef
gr
gs
0.976 0.433 0.433 c 12608 11949 m  12572 11913 l  12752 11734 l  12788 11698 12846 11698 12882 11734 ct 
12846 11769 l  12830 11753 12804 11753 12787 11769 ct 12608 11949 l  12608 11949 l 
p ef
gr
gs
0.867 0.210 0.183 c 17068 11910 m  16878 12100 l  16788 12190 16788 12338 16878 12428 ct 
16878 12428 l  16968 12518 17116 12518 17206 12428 ct 17396 12238 l  17068 11910 l 
17068 11910 l  p ef
gr
gs
0.921 0.730 0.089 c 17397 12238 m  17584 12051 l  17674 11961 17674 11813 17584 11723 ct 
17584 11723 l  17494 11633 17346 11633 17256 11723 ct 17068 11910 l  17397 12238 l 
17397 12238 l  p ef
gr
gs
0.957 0.406 0.406 c 17130 11972 m  16882 12220 l  16873 12228 16873 12242 16882 12250 ct 
16886 12254 16892 12257 16897 12257 ct 16903 12257 16908 12254 16913 12250 ct 
17161 12002 l  17130 11972 l  17130 11972 l  p ef
gr
gs
0.988 0.843 0.441 c 17161 12002 m  17391 11772 l  17400 11764 17400 11750 17391 11741 ct 
17383 11733 17369 11733 17361 11741 ct 17130 11972 l  17161 12002 l  17161 12002 l 
p ef
gr
gs
36 lw 1 lj 0.003 0.003 0.003 c 10898 12720 m  19801 12720 l  ps
gr
gs
0.003 0.003 0.003 c 20306 12720 m  19778 12544 l  19778 12896 l  20306 12720 l 
p ef
gr
gs
0.933 0.441 0.363 c 18220 9657 m  18212 9648 18201 9642 18189 9642 ct 18095 9642 l 
18095 9970 l  18185 9970 l  18185 9932 18216 9902 18253 9902 ct 18291 9902 18321 9932 18321 9970 ct 
18352 9970 l  18366 9970 18377 9958 18377 9944 ct 18377 9781 l  18377 9766 18366 9755 18352 9755 ct 
18304 9755 l  18301 9755 18297 9753 18294 9750 ct 18220 9657 l  p ef
gr
gs
0.902 0.902 0.902 c 18095 9834 m  17723 9834 l  17723 9573 l  17723 9555 17737 9541 17755 9541 ct 
18063 9541 l  18081 9541 18095 9555 18095 9573 ct 18095 9834 l  18095 9834 l 
p ef
gr
gs
0.359 0.359 0.359 c 18253 10037 m  18216 10037 18185 10007 18185 9970 ct 18185 9932 18216 9902 18253 9902 ct 
18291 9902 18321 9932 18321 9970 ct 18321 10007 18291 10037 18253 10037 ct p ef
gr
gs
0.359 0.359 0.359 c 17847 10037 m  17809 10037 17779 10007 17779 9970 ct 17779 9932 17809 9902 17847 9902 ct 
17884 9902 17915 9932 17915 9970 ct 17915 10007 17884 10037 17847 10037 ct p ef
gr
gs
0.632 0.296 0.242 c 17723 9834 m  17723 9947 l  17723 9959 17733 9970 17745 9970 ct 
17779 9970 l  17779 9932 17809 9902 17847 9902 ct 17884 9902 17915 9932 17915 9970 ct 
18095 9970 l  18095 9834 l  17723 9834 l  17723 9834 l  p ef
gr
gs
0.699 0.699 0.699 c 17847 9992 m  17834 9992 17824 9982 17824 9970 ct 17824 9957 17834 9947 17847 9947 ct 
17859 9947 17869 9957 17869 9970 ct 17869 9982 17859 9992 17847 9992 ct p ef
gr
gs
0.699 0.699 0.699 c 18253 9992 m  18241 9992 18231 9982 18231 9970 ct 18231 9957 18241 9947 18253 9947 ct 
18266 9947 18276 9957 18276 9970 ct 18276 9982 18266 9992 18253 9992 ct p ef
gr
gs
0.902 0.902 0.902 c 18220 9657 m  18212 9648 18201 9642 18189 9642 ct 18163 9642 l 
18163 9702 l  18163 9713 18171 9721 18182 9721 ct 18271 9721 l  18220 9657 l 
18220 9657 l  p ef
gr
gs
0.937 0.445 0.367 c 17933 9665 m  17929 9665 17926 9661 17926 9657 ct 17926 9627 l 
17926 9623 17922 9620 17918 9620 ct 17888 9620 l  17884 9620 17881 9623 17881 9627 ct 
17881 9657 l  17881 9661 17877 9665 17873 9665 ct 17843 9665 l  17839 9665 17836 9668 17836 9672 ct 
17836 9702 l  17836 9707 17839 9710 17843 9710 ct 17873 9710 l  17877 9710 17881 9713 17881 9718 ct 
17881 9748 l  17881 9752 17884 9755 17888 9755 ct 17918 9755 l  17922 9755 17926 9752 17926 9748 ct 
17926 9718 l  17926 9713 17929 9710 17933 9710 ct 17963 9710 l  17968 9710 17971 9707 17971 9702 ct 
17971 9672 l  17971 9668 17968 9665 17963 9665 ct 17933 9665 l  p ef
gr
gs
0.632 0.296 0.242 c 18377 9845 m  18377 9823 l  18185 9823 l  18179 9823 18174 9828 18174 9834 ct 
18174 9840 18179 9845 18185 9845 ct 18377 9845 l  18377 9845 l  p ef
gr
gs
0.675 0.886 1.000 c 13094 10175 m  13056 10175 13020 10161 12993 10134 ct 
12966 10107 12952 10072 12952 10034 ct 12952 9996 12966 9961 12993 9934 ct 13339 9588 l 
13366 9561 13401 9547 13439 9547 ct 13477 9547 13513 9561 13540 9588 ct 13567 9615 13581 9651 13581 9689 ct 
13581 9727 13567 9762 13540 9789 ct 13194 10134 l  13167 10161 13132 10175 13094 10175 ct 
13094 10175 l  p ef
gr
gs
0.613 0.863 1.000 c 13540 9588 m  12993 10134 l  12993 10134 l  13020 10161 13056 10175 13094 10175 ct 
13132 10175 13167 10161 13194 10134 ct 13540 9789 l  13567 9762 13581 9727 13581 9689 ct 
13581 9651 13567 9615 13540 9588 ct 13540 9588 l  13540 9588 l  p ef
gr
gs
0.917 0.265 0.339 c 13581 9689 m  13581 9651 13567 9615 13540 9588 ct 13513 9561 13477 9547 13439 9547 ct 
13401 9547 13366 9561 13339 9588 ct 13166 9761 l  13367 9962 l  13540 9789 l 
13567 9762 13581 9727 13581 9689 ct 13581 9689 l  p ef
gr
gs
0.867 0.140 0.207 c 13542 9590 m  13268 9863 l  13367 9962 l  13540 9789 l 
13567 9762 13581 9727 13581 9689 ct 13581 9652 13567 9617 13542 9590 ct 13542 9590 l 
p ef
gr
gs
1.000 1.000 1.000 c 13009 10082 m  12982 10056 12982 10013 13009 9986 ct 13142 9853 l 
13168 9879 l  13035 10013 l  13023 10025 13023 10044 13035 10056 ct 13009 10082 l 
13009 10082 l  p ef
gr
gs
0.976 0.433 0.433 c 13284 9763 m  13258 9737 l  13391 9604 l  13418 9577 13461 9577 13487 9604 ct 
13461 9630 l  13449 9618 13430 9618 13418 9630 ct 13284 9763 l  13284 9763 l 
p ef
gr
gs
0.867 0.210 0.183 c 16596 9735 m  16455 9876 l  16388 9943 16388 10052 16455 10118 ct 
16455 10118 l  16522 10185 16631 10185 16697 10118 ct 16838 9978 l  16596 9735 l 
16596 9735 l  p ef
gr
gs
0.921 0.730 0.089 c 16838 9978 m  16977 9839 l  17044 9772 17044 9663 16977 9596 ct 
16977 9596 l  16910 9529 16801 9529 16734 9596 ct 16596 9735 l  16838 9978 l 
16838 9978 l  p ef
gr
gs
0.957 0.406 0.406 c 16642 9780 m  16458 9964 l  16451 9971 16451 9981 16458 9987 ct 
16461 9990 16465 9992 16469 9992 ct 16473 9992 16477 9990 16480 9987 ct 16665 9803 l 
16642 9780 l  16642 9780 l  p ef
gr
gs
0.988 0.843 0.441 c 16664 9803 m  16835 9632 l  16841 9626 16841 9616 16835 9609 ct 
16828 9603 16818 9603 16812 9609 ct 16642 9780 l  16664 9803 l  16664 9803 l 
p ef
gr
gs
36 lw 1 lj 0.003 0.003 0.003 c 12014 10335 m  18493 10335 l  ps
gr
gs
0.003 0.003 0.003 c 18998 10335 m  18470 10159 l  18470 10511 l  18998 10335 l 
p ef
gr
gs
0.675 0.886 1.000 c 13086 9064 m  13048 9064 13012 9050 12985 9023 ct 12958 8996 12944 8960 12944 8922 ct 
12944 8884 12958 8849 12985 8822 ct 13331 8476 l  13358 8449 13393 8435 13431 8435 ct 
13469 8435 13505 8449 13532 8476 ct 13559 8503 13573 8539 13573 8577 ct 13573 8615 13559 8650 13532 8677 ct 
13186 9023 l  13159 9050 13124 9064 13086 9064 ct 13086 9064 l  p ef
gr
gs
0.613 0.863 1.000 c 13532 8476 m  12985 9023 l  12985 9023 l  13012 9050 13048 9064 13086 9064 ct 
13124 9064 13159 9050 13186 9023 ct 13532 8677 l  13559 8650 13573 8615 13573 8577 ct 
13573 8539 13559 8503 13532 8476 ct 13532 8476 l  13532 8476 l  p ef
gr
gs
0.917 0.265 0.339 c 13573 8577 m  13573 8539 13559 8503 13532 8476 ct 13505 8449 13469 8435 13431 8435 ct 
13393 8435 13358 8449 13331 8476 ct 13158 8649 l  13359 8850 l  13532 8677 l 
13559 8650 13573 8615 13573 8577 ct 13573 8577 l  p ef
gr
gs
0.867 0.140 0.207 c 13534 8478 m  13260 8751 l  13359 8850 l  13532 8677 l 
13559 8650 13573 8615 13573 8577 ct 13573 8540 13559 8505 13534 8478 ct 13534 8478 l 
p ef
gr
gs
1.000 1.000 1.000 c 13001 8970 m  12974 8944 12974 8901 13001 8874 ct 13134 8741 l 
13160 8767 l  13027 8901 l  13015 8913 13015 8932 13027 8944 ct 13001 8970 l 
13001 8970 l  p ef
gr
gs
0.976 0.433 0.433 c 13276 8651 m  13250 8625 l  13383 8492 l  13410 8465 13453 8465 13479 8492 ct 
13453 8518 l  13441 8506 13422 8506 13410 8518 ct 13276 8651 l  13276 8651 l 
p ef
gr
gs
0.867 0.210 0.183 c 16588 8623 m  16447 8764 l  16380 8831 16380 8940 16447 9007 ct 
16447 9007 l  16514 9074 16623 9074 16690 9007 ct 16830 8866 l  16588 8623 l 
16588 8623 l  p ef
gr
gs
0.921 0.730 0.089 c 16830 8866 m  16969 8727 l  17036 8660 17036 8551 16969 8484 ct 
16969 8484 l  16902 8417 16793 8417 16726 8484 ct 16588 8623 l  16830 8866 l 
16830 8866 l  p ef
gr
gs
0.957 0.406 0.406 c 16634 8668 m  16450 8852 l  16443 8859 16443 8869 16450 8875 ct 
16453 8878 16457 8880 16461 8880 ct 16465 8880 16469 8878 16472 8875 ct 16657 8691 l 
16634 8668 l  16634 8668 l  p ef
gr
gs
0.988 0.843 0.441 c 16656 8691 m  16827 8520 l  16833 8514 16833 8504 16827 8497 ct 
16820 8491 16810 8491 16804 8497 ct 16634 8668 l  16656 8691 l  16656 8691 l 
p ef
gr
gs
36 lw 1 lj 0.003 0.003 0.003 c 12006 9224 m  18485 9224 l  ps
gr
gs
0.003 0.003 0.003 c 18990 9224 m  18462 9048 l  18462 9400 l  18990 9224 l 
p ef
gr
gs
0.675 0.886 1.000 c 13078 7852 m  13040 7852 13004 7838 12977 7811 ct 12950 7784 12936 7748 12936 7710 ct 
12936 7672 12950 7637 12977 7610 ct 13323 7264 l  13350 7237 13385 7223 13423 7223 ct 
13461 7223 13497 7237 13524 7264 ct 13551 7291 13565 7327 13565 7365 ct 13565 7403 13551 7438 13524 7465 ct 
13178 7811 l  13151 7838 13116 7852 13078 7852 ct 13078 7852 l  p ef
gr
gs
0.613 0.863 1.000 c 13524 7264 m  12977 7811 l  12977 7811 l  13004 7838 13040 7852 13078 7852 ct 
13116 7852 13151 7838 13178 7811 ct 13524 7465 l  13551 7438 13565 7403 13565 7365 ct 
13565 7327 13551 7291 13524 7264 ct 13524 7264 l  13524 7264 l  p ef
gr
gs
0.917 0.265 0.339 c 13565 7365 m  13565 7327 13551 7291 13524 7264 ct 13497 7237 13461 7223 13423 7223 ct 
13385 7223 13350 7237 13323 7264 ct 13150 7437 l  13351 7638 l  13524 7465 l 
13551 7438 13565 7403 13565 7365 ct 13565 7365 l  p ef
gr
gs
0.867 0.140 0.207 c 13526 7266 m  13252 7539 l  13351 7638 l  13524 7465 l 
13551 7438 13565 7403 13565 7365 ct 13565 7328 13551 7293 13526 7266 ct 13526 7266 l 
p ef
gr
gs
1.000 1.000 1.000 c 12993 7758 m  12966 7732 12966 7689 12993 7662 ct 13126 7529 l 
13152 7555 l  13019 7689 l  13007 7701 13007 7720 13019 7732 ct 12993 7758 l 
12993 7758 l  p ef
gr
gs
0.976 0.433 0.433 c 13268 7439 m  13242 7413 l  13375 7280 l  13402 7253 13445 7253 13471 7280 ct 
13445 7306 l  13433 7294 13414 7294 13402 7306 ct 13268 7439 l  13268 7439 l 
p ef
gr
gs
0.867 0.210 0.183 c 16580 7411 m  16439 7552 l  16372 7619 16372 7728 16439 7795 ct 
16439 7795 l  16506 7862 16615 7862 16682 7795 ct 16822 7654 l  16580 7411 l 
16580 7411 l  p ef
gr
gs
0.921 0.730 0.089 c 16822 7654 m  16961 7515 l  17028 7448 17028 7339 16961 7272 ct 
16961 7272 l  16894 7205 16785 7205 16718 7272 ct 16580 7411 l  16822 7654 l 
16822 7654 l  p ef
gr
gs
0.957 0.406 0.406 c 16626 7456 m  16442 7640 l  16435 7647 16435 7657 16442 7663 ct 
16445 7666 16449 7668 16453 7668 ct 16457 7668 16461 7666 16464 7663 ct 16649 7479 l 
16626 7456 l  16626 7456 l  p ef
gr
gs
0.988 0.843 0.441 c 16648 7479 m  16819 7308 l  16825 7302 16825 7292 16819 7285 ct 
16812 7279 16802 7279 16796 7285 ct 16626 7456 l  16648 7479 l  16648 7479 l 
p ef
gr
gs
36 lw 1 lj 0.003 0.003 0.003 c 11998 8012 m  18477 8012 l  ps
gr
gs
0.003 0.003 0.003 c 18982 8012 m  18454 7836 l  18454 8188 l  18982 8012 l 
p ef
gr
gs
0.933 0.441 0.363 c 18196 6221 m  18188 6212 18177 6206 18165 6206 ct 18071 6206 l 
18071 6534 l  18161 6534 l  18161 6496 18192 6466 18229 6466 ct 18267 6466 18297 6496 18297 6534 ct 
18328 6534 l  18342 6534 18353 6522 18353 6508 ct 18353 6345 l  18353 6330 18342 6319 18328 6319 ct 
18280 6319 l  18277 6319 18273 6317 18270 6314 ct 18196 6221 l  p ef
gr
gs
0.902 0.902 0.902 c 18071 6398 m  17699 6398 l  17699 6137 l  17699 6119 17713 6105 17731 6105 ct 
18039 6105 l  18057 6105 18071 6119 18071 6137 ct 18071 6398 l  18071 6398 l 
p ef
gr
gs
0.359 0.359 0.359 c 18229 6601 m  18192 6601 18161 6571 18161 6534 ct 18161 6496 18192 6466 18229 6466 ct 
18267 6466 18297 6496 18297 6534 ct 18297 6571 18267 6601 18229 6601 ct p ef
gr
gs
0.359 0.359 0.359 c 17823 6601 m  17785 6601 17755 6571 17755 6534 ct 17755 6496 17785 6466 17823 6466 ct 
17860 6466 17891 6496 17891 6534 ct 17891 6571 17860 6601 17823 6601 ct p ef
gr
gs
0.632 0.296 0.242 c 17699 6398 m  17699 6511 l  17699 6523 17709 6534 17721 6534 ct 
17755 6534 l  17755 6496 17785 6466 17823 6466 ct 17860 6466 17891 6496 17891 6534 ct 
18071 6534 l  18071 6398 l  17699 6398 l  17699 6398 l  p ef
gr
gs
0.699 0.699 0.699 c 17823 6556 m  17810 6556 17800 6546 17800 6534 ct 17800 6521 17810 6511 17823 6511 ct 
17835 6511 17845 6521 17845 6534 ct 17845 6546 17835 6556 17823 6556 ct p ef
gr
gs
0.699 0.699 0.699 c 18229 6556 m  18217 6556 18207 6546 18207 6534 ct 18207 6521 18217 6511 18229 6511 ct 
18242 6511 18252 6521 18252 6534 ct 18252 6546 18242 6556 18229 6556 ct p ef
gr
gs
0.902 0.902 0.902 c 18196 6221 m  18188 6212 18177 6206 18165 6206 ct 18139 6206 l 
18139 6266 l  18139 6277 18147 6285 18158 6285 ct 18247 6285 l  18196 6221 l 
18196 6221 l  p ef
gr
gs
0.937 0.445 0.367 c 17909 6229 m  17905 6229 17902 6225 17902 6221 ct 17902 6191 l 
17902 6187 17898 6184 17894 6184 ct 17864 6184 l  17860 6184 17857 6187 17857 6191 ct 
17857 6221 l  17857 6225 17853 6229 17849 6229 ct 17819 6229 l  17815 6229 17812 6232 17812 6236 ct 
17812 6266 l  17812 6271 17815 6274 17819 6274 ct 17849 6274 l  17853 6274 17857 6277 17857 6282 ct 
17857 6312 l  17857 6316 17860 6319 17864 6319 ct 17894 6319 l  17898 6319 17902 6316 17902 6312 ct 
17902 6282 l  17902 6277 17905 6274 17909 6274 ct 17939 6274 l  17944 6274 17947 6271 17947 6266 ct 
17947 6236 l  17947 6232 17944 6229 17939 6229 ct 17909 6229 l  p ef
gr
gs
0.632 0.296 0.242 c 18353 6409 m  18353 6387 l  18161 6387 l  18155 6387 18150 6392 18150 6398 ct 
18150 6404 18155 6409 18161 6409 ct 18353 6409 l  18353 6409 l  p ef
gr
gs
0.675 0.886 1.000 c 13070 6740 m  13032 6740 12996 6726 12969 6699 ct 12942 6672 12928 6636 12928 6598 ct 
12928 6560 12942 6525 12969 6498 ct 13315 6152 l  13342 6125 13377 6111 13415 6111 ct 
13453 6111 13489 6125 13516 6152 ct 13543 6179 13557 6215 13557 6253 ct 13557 6291 13543 6326 13516 6353 ct 
13170 6699 l  13143 6726 13108 6740 13070 6740 ct 13070 6740 l  p ef
gr
gs
0.613 0.863 1.000 c 13516 6152 m  12969 6699 l  12969 6699 l  12996 6726 13032 6740 13070 6740 ct 
13108 6740 13143 6726 13170 6699 ct 13516 6353 l  13543 6326 13557 6291 13557 6253 ct 
13557 6215 13543 6179 13516 6152 ct 13516 6152 l  13516 6152 l  p ef
gr
gs
0.917 0.265 0.339 c 13557 6253 m  13557 6215 13543 6179 13516 6152 ct 13489 6125 13453 6111 13415 6111 ct 
13377 6111 13342 6125 13315 6152 ct 13142 6325 l  13343 6526 l  13516 6353 l 
13543 6326 13557 6291 13557 6253 ct 13557 6253 l  p ef
gr
gs
0.867 0.140 0.207 c 13518 6154 m  13244 6427 l  13343 6526 l  13516 6353 l 
13543 6326 13557 6291 13557 6253 ct 13557 6216 13543 6181 13518 6154 ct 13518 6154 l 
p ef
gr
gs
1.000 1.000 1.000 c 12985 6646 m  12958 6620 12958 6577 12985 6550 ct 13118 6417 l 
13144 6443 l  13011 6577 l  12999 6589 12999 6608 13011 6620 ct 12985 6646 l 
12985 6646 l  p ef
gr
gs
0.976 0.433 0.433 c 13260 6327 m  13234 6301 l  13367 6168 l  13394 6141 13437 6141 13463 6168 ct 
13437 6194 l  13425 6182 13406 6182 13394 6194 ct 13260 6327 l  13260 6327 l 
p ef
gr
gs
0.867 0.210 0.183 c 16572 6299 m  16431 6440 l  16364 6507 16364 6616 16431 6683 ct 
16431 6683 l  16498 6750 16607 6750 16674 6683 ct 16814 6542 l  16572 6299 l 
16572 6299 l  p ef
gr
gs
0.921 0.730 0.089 c 16814 6542 m  16953 6403 l  17020 6336 17020 6227 16953 6160 ct 
16953 6160 l  16886 6093 16777 6093 16710 6160 ct 16572 6299 l  16814 6542 l 
16814 6542 l  p ef
gr
gs
0.957 0.406 0.406 c 16618 6344 m  16434 6528 l  16427 6535 16427 6545 16434 6551 ct 
16437 6554 16441 6556 16445 6556 ct 16449 6556 16453 6554 16456 6551 ct 16641 6367 l 
16618 6344 l  16618 6344 l  p ef
gr
gs
0.988 0.843 0.441 c 16640 6367 m  16811 6196 l  16817 6190 16817 6180 16811 6173 ct 
16804 6167 16794 6167 16788 6173 ct 16618 6344 l  16640 6367 l  16640 6367 l 
p ef
gr
gs
36 lw 1 lj 0.003 0.003 0.003 c 11990 6900 m  18469 6900 l  ps
gr
gs
0.003 0.003 0.003 c 18974 6900 m  18446 6724 l  18446 7076 l  18974 6900 l 
p ef
gr
gs
0.933 0.441 0.363 c 14447 7348 m  14439 7339 14428 7333 14416 7333 ct 14322 7333 l 
14322 7661 l  14412 7661 l  14412 7623 14443 7593 14480 7593 ct 14518 7593 14548 7623 14548 7661 ct 
14579 7661 l  14593 7661 14604 7649 14604 7635 ct 14604 7472 l  14604 7457 14593 7446 14579 7446 ct 
14531 7446 l  14528 7446 14524 7444 14521 7441 ct 14447 7348 l  p ef
gr
gs
0.902 0.902 0.902 c 14322 7525 m  13950 7525 l  13950 7264 l  13950 7246 13964 7232 13982 7232 ct 
14290 7232 l  14308 7232 14322 7246 14322 7264 ct 14322 7525 l  14322 7525 l 
p ef
gr
gs
0.359 0.359 0.359 c 14480 7728 m  14443 7728 14412 7698 14412 7661 ct 14412 7623 14443 7593 14480 7593 ct 
14518 7593 14548 7623 14548 7661 ct 14548 7698 14518 7728 14480 7728 ct p ef
gr
gs
0.359 0.359 0.359 c 14074 7728 m  14036 7728 14006 7698 14006 7661 ct 14006 7623 14036 7593 14074 7593 ct 
14111 7593 14142 7623 14142 7661 ct 14142 7698 14111 7728 14074 7728 ct p ef
gr
gs
0.632 0.296 0.242 c 13950 7525 m  13950 7638 l  13950 7650 13960 7661 13972 7661 ct 
14006 7661 l  14006 7623 14036 7593 14074 7593 ct 14111 7593 14142 7623 14142 7661 ct 
14322 7661 l  14322 7525 l  13950 7525 l  13950 7525 l  p ef
gr
gs
0.699 0.699 0.699 c 14074 7683 m  14061 7683 14051 7673 14051 7661 ct 14051 7648 14061 7638 14074 7638 ct 
14086 7638 14096 7648 14096 7661 ct 14096 7673 14086 7683 14074 7683 ct p ef
gr
gs
0.699 0.699 0.699 c 14480 7683 m  14468 7683 14458 7673 14458 7661 ct 14458 7648 14468 7638 14480 7638 ct 
14493 7638 14503 7648 14503 7661 ct 14503 7673 14493 7683 14480 7683 ct p ef
gr
gs
0.902 0.902 0.902 c 14447 7348 m  14439 7339 14428 7333 14416 7333 ct 14390 7333 l 
14390 7393 l  14390 7404 14398 7412 14409 7412 ct 14498 7412 l  14447 7348 l 
14447 7348 l  p ef
gr
gs
0.937 0.445 0.367 c 14160 7356 m  14156 7356 14153 7352 14153 7348 ct 14153 7318 l 
14153 7314 14149 7311 14145 7311 ct 14115 7311 l  14111 7311 14108 7314 14108 7318 ct 
14108 7348 l  14108 7352 14104 7356 14100 7356 ct 14070 7356 l  14066 7356 14063 7359 14063 7363 ct 
14063 7393 l  14063 7398 14066 7401 14070 7401 ct 14100 7401 l  14104 7401 14108 7404 14108 7409 ct 
14108 7439 l  14108 7443 14111 7446 14115 7446 ct 14145 7446 l  14149 7446 14153 7443 14153 7439 ct 
14153 7409 l  14153 7404 14156 7401 14160 7401 ct 14190 7401 l  14195 7401 14198 7398 14198 7393 ct 
14198 7363 l  14198 7359 14195 7356 14190 7356 ct 14160 7356 l  p ef
gr
gs
0.632 0.296 0.242 c 14604 7536 m  14604 7514 l  14412 7514 l  14406 7514 14401 7519 14401 7525 ct 
14401 7531 14406 7536 14412 7536 ct 14604 7536 l  14604 7536 l  p ef
gr
gs
0.933 0.441 0.363 c 15747 8648 m  15739 8639 15728 8633 15716 8633 ct 15622 8633 l 
15622 8961 l  15712 8961 l  15712 8923 15743 8893 15780 8893 ct 15818 8893 15848 8923 15848 8961 ct 
15879 8961 l  15893 8961 15904 8949 15904 8935 ct 15904 8772 l  15904 8757 15893 8746 15879 8746 ct 
15831 8746 l  15828 8746 15824 8744 15821 8741 ct 15747 8648 l  p ef
gr
gs
0.902 0.902 0.902 c 15622 8825 m  15250 8825 l  15250 8564 l  15250 8546 15264 8532 15282 8532 ct 
15590 8532 l  15608 8532 15622 8546 15622 8564 ct 15622 8825 l  15622 8825 l 
p ef
gr
gs
0.359 0.359 0.359 c 15780 9028 m  15743 9028 15712 8998 15712 8961 ct 15712 8923 15743 8893 15780 8893 ct 
15818 8893 15848 8923 15848 8961 ct 15848 8998 15818 9028 15780 9028 ct p ef
gr
gs
0.359 0.359 0.359 c 15374 9028 m  15336 9028 15306 8998 15306 8961 ct 15306 8923 15336 8893 15374 8893 ct 
15411 8893 15442 8923 15442 8961 ct 15442 8998 15411 9028 15374 9028 ct p ef
gr
gs
0.632 0.296 0.242 c 15250 8825 m  15250 8938 l  15250 8950 15260 8961 15272 8961 ct 
15306 8961 l  15306 8923 15336 8893 15374 8893 ct 15411 8893 15442 8923 15442 8961 ct 
15622 8961 l  15622 8825 l  15250 8825 l  15250 8825 l  p ef
gr
gs
0.699 0.699 0.699 c 15374 8983 m  15361 8983 15351 8973 15351 8961 ct 15351 8948 15361 8938 15374 8938 ct 
15386 8938 15396 8948 15396 8961 ct 15396 8973 15386 8983 15374 8983 ct p ef
gr
gs
0.699 0.699 0.699 c 15780 8983 m  15768 8983 15758 8973 15758 8961 ct 15758 8948 15768 8938 15780 8938 ct 
15793 8938 15803 8948 15803 8961 ct 15803 8973 15793 8983 15780 8983 ct p ef
gr
gs
0.902 0.902 0.902 c 15747 8648 m  15739 8639 15728 8633 15716 8633 ct 15690 8633 l 
15690 8693 l  15690 8704 15698 8712 15709 8712 ct 15798 8712 l  15747 8648 l 
15747 8648 l  p ef
gr
gs
0.937 0.445 0.367 c 15460 8656 m  15456 8656 15453 8652 15453 8648 ct 15453 8618 l 
15453 8614 15449 8611 15445 8611 ct 15415 8611 l  15411 8611 15408 8614 15408 8618 ct 
15408 8648 l  15408 8652 15404 8656 15400 8656 ct 15370 8656 l  15366 8656 15363 8659 15363 8663 ct 
15363 8693 l  15363 8698 15366 8701 15370 8701 ct 15400 8701 l  15404 8701 15408 8704 15408 8709 ct 
15408 8739 l  15408 8743 15411 8746 15415 8746 ct 15445 8746 l  15449 8746 15453 8743 15453 8739 ct 
15453 8709 l  15453 8704 15456 8701 15460 8701 ct 15490 8701 l  15495 8701 15498 8698 15498 8693 ct 
15498 8663 l  15498 8659 15495 8656 15490 8656 ct 15460 8656 l  p ef
gr
gs
0.632 0.296 0.242 c 15904 8836 m  15904 8814 l  15712 8814 l  15706 8814 15701 8819 15701 8825 ct 
15701 8831 15706 8836 15712 8836 ct 15904 8836 l  15904 8836 l  p ef
gr
gs
0.675 0.886 1.000 c 14087 9065 m  14049 9065 14013 9051 13986 9024 ct 13959 8997 13945 8961 13945 8923 ct 
13945 8885 13959 8850 13986 8823 ct 14332 8477 l  14359 8450 14394 8436 14432 8436 ct 
14470 8436 14506 8450 14533 8477 ct 14560 8504 14574 8540 14574 8578 ct 14574 8616 14560 8651 14533 8678 ct 
14187 9024 l  14160 9051 14125 9065 14087 9065 ct 14087 9065 l  p ef
gr
gs
0.613 0.863 1.000 c 14533 8477 m  13986 9024 l  13986 9024 l  14013 9051 14049 9065 14087 9065 ct 
14125 9065 14160 9051 14187 9024 ct 14533 8678 l  14560 8651 14574 8616 14574 8578 ct 
14574 8540 14560 8504 14533 8477 ct 14533 8477 l  14533 8477 l  p ef
gr
gs
0.917 0.265 0.339 c 14574 8578 m  14574 8540 14560 8504 14533 8477 ct 14506 8450 14470 8436 14432 8436 ct 
14394 8436 14359 8450 14332 8477 ct 14159 8650 l  14360 8851 l  14533 8678 l 
14560 8651 14574 8616 14574 8578 ct 14574 8578 l  p ef
gr
gs
0.867 0.140 0.207 c 14535 8479 m  14261 8752 l  14360 8851 l  14533 8678 l 
14560 8651 14574 8616 14574 8578 ct 14574 8541 14560 8506 14535 8479 ct 14535 8479 l 
p ef
gr
gs
1.000 1.000 1.000 c 14002 8971 m  13975 8945 13975 8902 14002 8875 ct 14135 8742 l 
14161 8768 l  14028 8902 l  14016 8914 14016 8933 14028 8945 ct 14002 8971 l 
14002 8971 l  p ef
gr
gs
0.976 0.433 0.433 c 14277 8652 m  14251 8626 l  14384 8493 l  14411 8466 14454 8466 14480 8493 ct 
14454 8519 l  14442 8507 14423 8507 14411 8519 ct 14277 8652 l  14277 8652 l 
p ef
gr
gs
0.675 0.886 1.000 c 15388 10165 m  15350 10165 15314 10151 15287 10124 ct 
15260 10097 15246 10062 15246 10024 ct 15246 9986 15260 9951 15287 9924 ct 15633 9578 l 
15660 9551 15695 9537 15733 9537 ct 15771 9537 15807 9551 15834 9578 ct 15861 9605 15875 9641 15875 9679 ct 
15875 9717 15861 9752 15834 9779 ct 15488 10124 l  15461 10151 15426 10165 15388 10165 ct 
15388 10165 l  p ef
gr
gs
0.613 0.863 1.000 c 15834 9578 m  15287 10124 l  15287 10124 l  15314 10151 15350 10165 15388 10165 ct 
15426 10165 15461 10151 15488 10124 ct 15834 9779 l  15861 9752 15875 9717 15875 9679 ct 
15875 9641 15861 9605 15834 9578 ct 15834 9578 l  15834 9578 l  p ef
gr
gs
0.917 0.265 0.339 c 15875 9679 m  15875 9641 15861 9605 15834 9578 ct 15807 9551 15771 9537 15733 9537 ct 
15695 9537 15660 9551 15633 9578 ct 15460 9751 l  15661 9952 l  15834 9779 l 
15861 9752 15875 9717 15875 9679 ct 15875 9679 l  p ef
gr
gs
0.867 0.140 0.207 c 15836 9580 m  15562 9853 l  15661 9952 l  15834 9779 l 
15861 9752 15875 9717 15875 9679 ct 15875 9642 15861 9607 15836 9580 ct 15836 9580 l 
p ef
gr
gs
1.000 1.000 1.000 c 15303 10072 m  15276 10046 15276 10003 15303 9976 ct 15436 9843 l 
15462 9869 l  15329 10003 l  15317 10015 15317 10034 15329 10046 ct 15303 10072 l 
15303 10072 l  p ef
gr
gs
0.976 0.433 0.433 c 15578 9753 m  15552 9727 l  15685 9594 l  15712 9567 15755 9567 15781 9594 ct 
15755 9620 l  15743 9608 15724 9608 15712 9620 ct 15578 9753 l  15578 9753 l 
p ef
gr
gs
0.867 0.210 0.183 c 14197 9736 m  14056 9877 l  13989 9944 13989 10053 14056 10119 ct 
14056 10119 l  14123 10186 14232 10186 14299 10119 ct 14440 9979 l  14197 9736 l 
14197 9736 l  p ef
gr
gs
0.921 0.730 0.089 c 14440 9979 m  14579 9840 l  14646 9773 14646 9664 14579 9597 ct 
14579 9597 l  14512 9530 14403 9530 14336 9597 ct 14197 9736 l  14440 9979 l 
14440 9979 l  p ef
gr
gs
0.957 0.406 0.406 c 14243 9781 m  14059 9965 l  14052 9972 14052 9982 14059 9988 ct 
14062 9991 14066 9993 14070 9993 ct 14074 9993 14078 9991 14081 9988 ct 14266 9804 l 
14243 9781 l  14243 9781 l  p ef
gr
gs
0.988 0.843 0.441 c 14265 9804 m  14437 9633 l  14443 9627 14443 9617 14437 9610 ct 
14430 9604 14420 9604 14414 9610 ct 14243 9781 l  14265 9804 l  14265 9804 l 
p ef
gr
gs
0 lw 1 lj [ 53.0915 53.0915 ] 0 ld
0.003 0.003 0.003 c 15531 13064 m  10769 13064 l  10769 11287 l  20292 11287 l 
20292 13064 l  15531 13064 l  pc
gr
gs
0.933 0.441 0.363 c 18188 5110 m  18180 5101 18169 5095 18157 5095 ct 18063 5095 l 
18063 5423 l  18153 5423 l  18153 5385 18184 5355 18221 5355 ct 18259 5355 18289 5385 18289 5423 ct 
18320 5423 l  18334 5423 18345 5411 18345 5397 ct 18345 5234 l  18345 5219 18334 5208 18320 5208 ct 
18272 5208 l  18269 5208 18265 5206 18262 5203 ct 18188 5110 l  p ef
gr
gs
0.902 0.902 0.902 c 18063 5287 m  17691 5287 l  17691 5026 l  17691 5008 17705 4994 17723 4994 ct 
18031 4994 l  18049 4994 18063 5008 18063 5026 ct 18063 5287 l  18063 5287 l 
p ef
gr
gs
0.359 0.359 0.359 c 18221 5490 m  18184 5490 18153 5460 18153 5423 ct 18153 5385 18184 5355 18221 5355 ct 
18259 5355 18289 5385 18289 5423 ct 18289 5460 18259 5490 18221 5490 ct p ef
gr
gs
0.359 0.359 0.359 c 17815 5490 m  17777 5490 17747 5460 17747 5423 ct 17747 5385 17777 5355 17815 5355 ct 
17852 5355 17883 5385 17883 5423 ct 17883 5460 17852 5490 17815 5490 ct p ef
gr
gs
0.632 0.296 0.242 c 17691 5287 m  17691 5400 l  17691 5412 17701 5423 17713 5423 ct 
17747 5423 l  17747 5385 17777 5355 17815 5355 ct 17852 5355 17883 5385 17883 5423 ct 
18063 5423 l  18063 5287 l  17691 5287 l  17691 5287 l  p ef
gr
gs
0.699 0.699 0.699 c 17815 5445 m  17802 5445 17792 5435 17792 5423 ct 17792 5410 17802 5400 17815 5400 ct 
17827 5400 17837 5410 17837 5423 ct 17837 5435 17827 5445 17815 5445 ct p ef
gr
gs
0.699 0.699 0.699 c 18221 5445 m  18209 5445 18199 5435 18199 5423 ct 18199 5410 18209 5400 18221 5400 ct 
18234 5400 18244 5410 18244 5423 ct 18244 5435 18234 5445 18221 5445 ct p ef
gr
gs
0.902 0.902 0.902 c 18188 5110 m  18180 5101 18169 5095 18157 5095 ct 18131 5095 l 
18131 5155 l  18131 5166 18139 5174 18150 5174 ct 18239 5174 l  18188 5110 l 
18188 5110 l  p ef
gr
gs
0.937 0.445 0.367 c 17901 5118 m  17897 5118 17894 5114 17894 5110 ct 17894 5080 l 
17894 5076 17890 5073 17886 5073 ct 17856 5073 l  17852 5073 17849 5076 17849 5080 ct 
17849 5110 l  17849 5114 17845 5118 17841 5118 ct 17811 5118 l  17807 5118 17804 5121 17804 5125 ct 
17804 5155 l  17804 5160 17807 5163 17811 5163 ct 17841 5163 l  17845 5163 17849 5166 17849 5171 ct 
17849 5201 l  17849 5205 17852 5208 17856 5208 ct 17886 5208 l  17890 5208 17894 5205 17894 5201 ct 
17894 5171 l  17894 5166 17897 5163 17901 5163 ct 17931 5163 l  17936 5163 17939 5160 17939 5155 ct 
17939 5125 l  17939 5121 17936 5118 17931 5118 ct 17901 5118 l  p ef
gr
gs
0.632 0.296 0.242 c 18345 5298 m  18345 5276 l  18153 5276 l  18147 5276 18142 5281 18142 5287 ct 
18142 5293 18147 5298 18153 5298 ct 18345 5298 l  18345 5298 l  p ef
gr
gs
0.675 0.886 1.000 c 13062 5629 m  13024 5629 12988 5615 12961 5588 ct 12934 5561 12920 5525 12920 5487 ct 
12920 5449 12934 5414 12961 5387 ct 13307 5041 l  13334 5014 13369 5000 13407 5000 ct 
13445 5000 13481 5014 13508 5041 ct 13535 5068 13549 5104 13549 5142 ct 13549 5180 13535 5215 13508 5242 ct 
13162 5588 l  13135 5615 13100 5629 13062 5629 ct 13062 5629 l  p ef
gr
gs
0.613 0.863 1.000 c 13508 5041 m  12961 5588 l  12961 5588 l  12988 5615 13024 5629 13062 5629 ct 
13100 5629 13135 5615 13162 5588 ct 13508 5242 l  13535 5215 13549 5180 13549 5142 ct 
13549 5104 13535 5068 13508 5041 ct 13508 5041 l  13508 5041 l  p ef
gr
gs
0.917 0.265 0.339 c 13549 5142 m  13549 5104 13535 5068 13508 5041 ct 13481 5014 13445 5000 13407 5000 ct 
13369 5000 13334 5014 13307 5041 ct 13134 5214 l  13335 5415 l  13508 5242 l 
13535 5215 13549 5180 13549 5142 ct 13549 5142 l  p ef
gr
gs
0.867 0.140 0.207 c 13510 5043 m  13236 5316 l  13335 5415 l  13508 5242 l 
13535 5215 13549 5180 13549 5142 ct 13549 5105 13535 5070 13510 5043 ct 13510 5043 l 
p ef
gr
gs
1.000 1.000 1.000 c 12977 5535 m  12950 5509 12950 5466 12977 5439 ct 13110 5306 l 
13136 5332 l  13003 5466 l  12991 5478 12991 5497 13003 5509 ct 12977 5535 l 
12977 5535 l  p ef
gr
gs
0.976 0.433 0.433 c 13252 5216 m  13226 5190 l  13359 5057 l  13386 5030 13429 5030 13455 5057 ct 
13429 5083 l  13417 5071 13398 5071 13386 5083 ct 13252 5216 l  13252 5216 l 
p ef
gr
gs
0.867 0.210 0.183 c 16564 5188 m  16423 5329 l  16356 5396 16356 5505 16423 5572 ct 
16423 5572 l  16490 5639 16599 5639 16666 5572 ct 16806 5431 l  16564 5188 l 
16564 5188 l  p ef
gr
gs
0.921 0.730 0.089 c 16806 5431 m  16945 5292 l  17012 5225 17012 5116 16945 5049 ct 
16945 5049 l  16878 4982 16769 4982 16702 5049 ct 16564 5188 l  16806 5431 l 
16806 5431 l  p ef
gr
gs
0.957 0.406 0.406 c 16610 5233 m  16426 5417 l  16419 5424 16419 5434 16426 5440 ct 
16429 5443 16433 5445 16437 5445 ct 16441 5445 16445 5443 16448 5440 ct 16633 5256 l 
16610 5233 l  16610 5233 l  p ef
gr
gs
0.988 0.843 0.441 c 16632 5256 m  16803 5085 l  16809 5079 16809 5069 16803 5062 ct 
16796 5056 16786 5056 16780 5062 ct 16610 5233 l  16632 5256 l  16632 5256 l 
p ef
gr
gs
36 lw 1 lj 0.003 0.003 0.003 c 11982 5789 m  18461 5789 l  ps
gr
gs
0.003 0.003 0.003 c 18966 5789 m  18438 5613 l  18438 5965 l  18966 5789 l 
p ef
gr
0 8074 t 
pom
count op_count sub {pop} repeat countdictstack dict_count sub {end} repeat b4_inc_state restore
%%PageTrailer
%%Trailer
%%EOF
