﻿\begin{tikzpicture}[scale=.8, every node/.style={scale=0.75}]

\umlclass[x=0, y=0]{IR-BEN-R}
{
%NIR: string\\
gender: uint \\
birth-date: date \\
location: uint \\
ALD: uint
}

\umlclass[x=6, y=-2.7]{DA-PRA-R}
{
%gender: uint \\
%birth-date: date \\
location: uint \\
specialty: uint
}


\umlclass[x=5, y=0]{T-MCO-B}{
entry-date: date\\ 
exit-date: date\\ 
DP: string (ICD code)
}

\umlclass[x=10, y=0.5]{T-MCO-A}{
ordre: uint\\
proc: string (CCAM code)\\
}

\umlclass[x=10, y=-1.5]{T-MCO-D}{
diag: string (ICD code)
}

\umlclass[x=10, y=-3.2]{T-MCO-E}{
location: uint
}

\umlclass[x=1, y=-2.7, name=ERPRSF]{ER-PRS-F}
{
date: date\\
prs\_nat: uint
}

\umlclass[x=1, y=-4.9, name=ERBIOF]{ER-BIO-F}
{
code: string (NABM code)
}

\umlclass[x=5, y=-4.9, name=ERPHAF]{ER-PHA-F}
{
code: string (ATC code)
}

\umlclass[x=9, y=-4.9]{ER-CAM-F}
{
code: string (CCAM code)
}

\umlassoc{ER-PRS-F}{ER-BIO-F}
\umlassoc{ER-PRS-F}{ER-CAM-F}
\umlassoc{ER-PRS-F}{ER-PHA-F}
\umlassoc{ER-PRS-F}{DA-PRA-R}
\umlassoc{ER-PRS-F}{IR-BEN-R}
\umlassoc{T-MCO-B}{IR-BEN-R}
\umlassoc{T-MCO-B}{T-MCO-A}
\umlassoc{T-MCO-B}{T-MCO-D}
\umlassoc{T-MCO-B}{T-MCO-E}
\end{tikzpicture}
