%!PS-Adobe-3.0 EPSF-3.0 
%%BoundingBox: 0 0 270 229
%%Pages: 0
%%Creator: LibreOffice 6.0
%%Title: none
%%CreationDate: none
%%LanguageLevel: 2
%%EndComments
%%BeginProlog
%%BeginResource: procset SDRes-Prolog 1.0 0
/b4_inc_state save def
/dict_count countdictstack def
/op_count count 1 sub def
userdict begin
0 setgray 0 setlinecap 1 setlinewidth 0 setlinejoin 10 setmiterlimit[] 0 setdash newpath
/languagelevel where {pop languagelevel 1 ne {false setstrokeadjust false setoverprint} if} if
/bdef {bind def} bind def
/c {setrgbcolor} bdef
/l {neg lineto} bdef
/rl {neg rlineto} bdef
/lc {setlinecap} bdef
/lj {setlinejoin} bdef
/lw {setlinewidth} bdef
/ml {setmiterlimit} bdef
/ld {setdash} bdef
/m {neg moveto} bdef
/ct {6 2 roll neg 6 2 roll neg 6 2 roll neg curveto} bdef
/r {rotate} bdef
/t {neg translate} bdef
/s {scale} bdef
/sw {show} bdef
/gs {gsave} bdef
/gr {grestore} bdef
/f {findfont dup length dict begin
{1 index /FID ne {def} {pop pop} ifelse} forall /Encoding ISOLatin1Encoding def
currentdict end /NFont exch definefont pop /NFont findfont} bdef
/p {closepath} bdef
/sf {scalefont setfont} bdef
/ef {eofill}bdef
/pc {closepath stroke}bdef
/ps {stroke}bdef
/pum {matrix currentmatrix}bdef
/pom {setmatrix}bdef
/bs {/aString exch def /nXOfs exch def /nWidth exch def currentpoint nXOfs 0 rmoveto pum nWidth aString stringwidth pop div 1 scale aString show pom moveto} bdef
%%EndResource
%%EndProlog
%%BeginSetup
%%EndSetup
%%Page: 1 1
%%BeginPageSetup
%%EndPageSetup
pum
0.0283 0.02836 s 
0 -8074 t
/tm matrix currentmatrix def
tm setmatrix
-871 -4992 t 
1 1 s 
gs
0.933 0.441 0.363 c 9360 11804 m  9350 11792 9335 11785 9319 11785 ct 9192 11785 l 
9192 12225 l  9314 12225 l  9314 12175 9354 12134 9405 12134 ct 9455 12134 9496 12175 9496 12225 ct 
9538 12225 l  9557 12225 9572 12210 9572 12191 ct 9572 11971 l  9572 11952 9557 11937 9538 11937 ct 
9474 11937 l  9469 11937 9464 11934 9460 11930 ct 9360 11804 l  p ef
gr
gs
0.902 0.902 0.902 c 9192 12043 m  8690 12043 l  8690 11692 l  8690 11667 8709 11648 8734 11648 ct 
9148 11648 l  9172 11648 9192 11667 9192 11692 ct 9192 12043 l  9192 12043 l 
p ef
gr
gs
0.359 0.359 0.359 c 9405 12316 m  9354 12316 9314 12276 9314 12225 ct 9314 12175 9354 12134 9405 12134 ct 
9455 12134 9496 12175 9496 12225 ct 9496 12276 9455 12316 9405 12316 ct p ef
gr
gs
0.359 0.359 0.359 c 8857 12316 m  8807 12316 8766 12276 8766 12225 ct 8766 12175 8807 12134 8857 12134 ct 
8908 12134 8948 12175 8948 12225 ct 8948 12276 8908 12316 8857 12316 ct p ef
gr
gs
0.632 0.296 0.242 c 8690 12043 m  8690 12195 l  8690 12212 8703 12225 8720 12225 ct 
8766 12225 l  8766 12175 8807 12134 8857 12134 ct 8908 12134 8948 12175 8948 12225 ct 
9192 12225 l  9192 12043 l  8690 12043 l  8690 12043 l  p ef
gr
gs
0.699 0.699 0.699 c 8857 12256 m  8840 12256 8827 12242 8827 12225 ct 8827 12208 8840 12195 8857 12195 ct 
8874 12195 8888 12208 8888 12225 ct 8888 12242 8874 12256 8857 12256 ct p ef
gr
gs
0.699 0.699 0.699 c 9405 12256 m  9388 12256 9374 12242 9374 12225 ct 9374 12208 9388 12195 9405 12195 ct 
9422 12195 9435 12208 9435 12225 ct 9435 12242 9422 12256 9405 12256 ct p ef
gr
gs
0.902 0.902 0.902 c 9360 11804 m  9350 11792 9335 11785 9319 11785 ct 9283 11785 l 
9283 11866 l  9283 11880 9294 11891 9308 11891 ct 9429 11891 l  9360 11804 l 
9360 11804 l  p ef
gr
gs
0.937 0.445 0.367 c 8974 11815 m  8968 11815 8964 11810 8964 11805 ct 8964 11764 l 
8964 11759 8959 11754 8954 11754 ct 8913 11754 l  8907 11754 8903 11759 8903 11764 ct 
8903 11805 l  8903 11810 8898 11815 8893 11815 ct 8852 11815 l  8847 11815 8842 11820 8842 11825 ct 
8842 11866 l  8842 11871 8847 11876 8852 11876 ct 8893 11876 l  8898 11876 8903 11880 8903 11886 ct 
8903 11926 l  8903 11932 8907 11937 8913 11937 ct 8954 11937 l  8959 11937 8964 11932 8964 11926 ct 
8964 11886 l  8964 11880 8968 11876 8974 11876 ct 9014 11876 l  9020 11876 9025 11871 9025 11866 ct 
9025 11825 l  9025 11820 9020 11815 9014 11815 ct 8974 11815 l  p ef
gr
gs
0.632 0.296 0.242 c 9572 12058 m  9572 12028 l  9314 12028 l  9305 12028 9298 12035 9298 12043 ct 
9298 12051 9305 12058 9314 12058 ct 9572 12058 l  9572 12058 l  p ef
gr
gs
0.675 0.886 1.000 c 2453 12504 m  2402 12504 2355 12484 2319 12448 ct 2283 12412 2263 12364 2263 12313 ct 
2263 12262 2283 12214 2319 12178 ct 2784 11712 l  2820 11676 2868 11656 2919 11656 ct 
2970 11656 3018 11676 3054 11712 ct 3090 11748 3110 11796 3110 11847 ct 3110 11898 3090 11946 3054 11982 ct 
2588 12448 l  2552 12484 2504 12504 2453 12504 ct 2453 12504 l  p ef
gr
gs
0.613 0.863 1.000 c 3054 11712 m  2319 12448 l  2319 12448 l  2355 12484 2402 12504 2453 12504 ct 
2504 12504 2552 12484 2588 12448 ct 3054 11982 l  3090 11946 3110 11898 3110 11847 ct 
3110 11796 3090 11748 3054 11712 ct 3054 11712 l  3054 11712 l  p ef
gr
gs
0.917 0.265 0.339 c 3110 11847 m  3110 11796 3090 11748 3054 11712 ct 3018 11676 2970 11656 2919 11656 ct 
2868 11656 2820 11676 2784 11712 ct 2551 11945 l  2821 12215 l  3054 11982 l 
3090 11946 3110 11898 3110 11847 ct 3110 11847 l  p ef
gr
gs
0.867 0.140 0.207 c 3057 11714 m  2688 12082 l  2821 12215 l  3054 11982 l 
3090 11946 3110 11898 3110 11847 ct 3110 11797 3091 11750 3057 11714 ct 3057 11714 l 
p ef
gr
gs
1.000 1.000 1.000 c 2340 12378 m  2304 12342 2304 12284 2340 12248 ct 2518 12068 l 
2554 12104 l  2375 12283 l  2359 12300 2359 12326 2375 12342 ct 2340 12378 l 
2340 12378 l  p ef
gr
gs
0.976 0.433 0.433 c 2710 11948 m  2674 11912 l  2854 11733 l  2890 11697 2948 11697 2984 11733 ct 
2948 11768 l  2932 11752 2906 11752 2889 11768 ct 2710 11948 l  2710 11948 l 
p ef
gr
gs
0.867 0.210 0.183 c 7170 11909 m  6981 12099 l  6891 12189 6891 12337 6981 12427 ct 
6981 12427 l  7071 12517 7218 12517 7308 12427 ct 7498 12237 l  7170 11909 l 
7170 11909 l  p ef
gr
gs
0.921 0.730 0.089 c 7499 12237 m  7686 12050 l  7776 11960 7776 11812 7686 11722 ct 
7686 11722 l  7596 11632 7448 11632 7358 11722 ct 7170 11909 l  7499 12237 l 
7499 12237 l  p ef
gr
gs
0.957 0.406 0.406 c 7232 11971 m  6985 12219 l  6976 12227 6976 12241 6985 12249 ct 
6989 12253 6995 12256 7000 12256 ct 7006 12256 7011 12253 7016 12249 ct 7263 12001 l 
7232 11971 l  7232 11971 l  p ef
gr
gs
0.988 0.843 0.441 c 7263 12001 m  7493 11771 l  7502 11763 7502 11749 7493 11740 ct 
7485 11732 7471 11732 7463 11740 ct 7232 11971 l  7263 12001 l  7263 12001 l 
p ef
gr
gs
36 lw 1 lj 0.003 0.003 0.003 c 1000 12719 m  9903 12719 l  ps
gr
gs
0.003 0.003 0.003 c 10408 12719 m  9880 12543 l  9880 12895 l  10408 12719 l 
p ef
gr
gs
0.933 0.441 0.363 c 8322 9656 m  8314 9647 8303 9641 8291 9641 ct 8197 9641 l 
8197 9969 l  8287 9969 l  8287 9931 8318 9901 8355 9901 ct 8393 9901 8423 9931 8423 9969 ct 
8454 9969 l  8468 9969 8479 9957 8479 9943 ct 8479 9780 l  8479 9765 8468 9754 8454 9754 ct 
8406 9754 l  8403 9754 8399 9752 8396 9749 ct 8322 9656 l  p ef
gr
gs
0.902 0.902 0.902 c 8197 9833 m  7825 9833 l  7825 9572 l  7825 9554 7839 9540 7857 9540 ct 
8165 9540 l  8183 9540 8197 9554 8197 9572 ct 8197 9833 l  8197 9833 l  p ef
gr
gs
0.359 0.359 0.359 c 8355 10036 m  8318 10036 8287 10006 8287 9969 ct 8287 9931 8318 9901 8355 9901 ct 
8393 9901 8423 9931 8423 9969 ct 8423 10006 8393 10036 8355 10036 ct p ef
gr
gs
0.359 0.359 0.359 c 7949 10036 m  7911 10036 7881 10006 7881 9969 ct 7881 9931 7911 9901 7949 9901 ct 
7986 9901 8017 9931 8017 9969 ct 8017 10006 7986 10036 7949 10036 ct p ef
gr
gs
0.632 0.296 0.242 c 7825 9833 m  7825 9946 l  7825 9958 7835 9969 7847 9969 ct 
7881 9969 l  7881 9931 7911 9901 7949 9901 ct 7986 9901 8017 9931 8017 9969 ct 
8197 9969 l  8197 9833 l  7825 9833 l  7825 9833 l  p ef
gr
gs
0.699 0.699 0.699 c 7949 9991 m  7936 9991 7926 9981 7926 9969 ct 7926 9956 7936 9946 7949 9946 ct 
7961 9946 7971 9956 7971 9969 ct 7971 9981 7961 9991 7949 9991 ct p ef
gr
gs
0.699 0.699 0.699 c 8355 9991 m  8343 9991 8333 9981 8333 9969 ct 8333 9956 8343 9946 8355 9946 ct 
8368 9946 8378 9956 8378 9969 ct 8378 9981 8368 9991 8355 9991 ct p ef
gr
gs
0.902 0.902 0.902 c 8322 9656 m  8314 9647 8303 9641 8291 9641 ct 8265 9641 l 
8265 9701 l  8265 9712 8273 9720 8284 9720 ct 8373 9720 l  8322 9656 l  8322 9656 l 
p ef
gr
gs
0.937 0.445 0.367 c 8035 9664 m  8031 9664 8028 9660 8028 9656 ct 8028 9626 l 
8028 9622 8024 9619 8020 9619 ct 7990 9619 l  7986 9619 7983 9622 7983 9626 ct 
7983 9656 l  7983 9660 7979 9664 7975 9664 ct 7945 9664 l  7941 9664 7938 9667 7938 9671 ct 
7938 9701 l  7938 9706 7941 9709 7945 9709 ct 7975 9709 l  7979 9709 7983 9712 7983 9717 ct 
7983 9747 l  7983 9751 7986 9754 7990 9754 ct 8020 9754 l  8024 9754 8028 9751 8028 9747 ct 
8028 9717 l  8028 9712 8031 9709 8035 9709 ct 8065 9709 l  8070 9709 8073 9706 8073 9701 ct 
8073 9671 l  8073 9667 8070 9664 8065 9664 ct 8035 9664 l  p ef
gr
gs
0.632 0.296 0.242 c 8479 9844 m  8479 9822 l  8287 9822 l  8281 9822 8276 9827 8276 9833 ct 
8276 9839 8281 9844 8287 9844 ct 8479 9844 l  8479 9844 l  p ef
gr
gs
0.675 0.886 1.000 c 3196 10174 m  3158 10174 3122 10160 3095 10133 ct 3068 10106 3054 10071 3054 10033 ct 
3054 9995 3068 9960 3095 9933 ct 3441 9587 l  3468 9560 3503 9546 3541 9546 ct 
3579 9546 3615 9560 3642 9587 ct 3669 9614 3683 9650 3683 9688 ct 3683 9726 3669 9761 3642 9788 ct 
3296 10133 l  3269 10160 3234 10174 3196 10174 ct 3196 10174 l  p ef
gr
gs
0.613 0.863 1.000 c 3642 9587 m  3095 10133 l  3095 10133 l  3122 10160 3158 10174 3196 10174 ct 
3234 10174 3269 10160 3296 10133 ct 3642 9788 l  3669 9761 3683 9726 3683 9688 ct 
3683 9650 3669 9614 3642 9587 ct 3642 9587 l  3642 9587 l  p ef
gr
gs
0.917 0.265 0.339 c 3683 9688 m  3683 9650 3669 9614 3642 9587 ct 3615 9560 3579 9546 3541 9546 ct 
3503 9546 3468 9560 3441 9587 ct 3268 9760 l  3469 9961 l  3642 9788 l  3669 9761 3683 9726 3683 9688 ct 
3683 9688 l  p ef
gr
gs
0.867 0.140 0.207 c 3644 9589 m  3370 9862 l  3469 9961 l  3642 9788 l 
3669 9761 3683 9726 3683 9688 ct 3683 9651 3669 9616 3644 9589 ct 3644 9589 l 
p ef
gr
gs
1.000 1.000 1.000 c 3111 10081 m  3084 10055 3084 10012 3111 9985 ct 3244 9852 l 
3270 9878 l  3137 10012 l  3125 10024 3125 10043 3137 10055 ct 3111 10081 l 
3111 10081 l  p ef
gr
gs
0.976 0.433 0.433 c 3386 9762 m  3360 9736 l  3493 9603 l  3520 9576 3563 9576 3589 9603 ct 
3563 9629 l  3551 9617 3532 9617 3520 9629 ct 3386 9762 l  3386 9762 l  p ef
gr
gs
0.867 0.210 0.183 c 6698 9734 m  6557 9875 l  6490 9942 6490 10051 6557 10117 ct 
6557 10117 l  6624 10184 6733 10184 6800 10117 ct 6941 9977 l  6698 9734 l 
6698 9734 l  p ef
gr
gs
0.921 0.730 0.089 c 6941 9977 m  7080 9838 l  7147 9771 7147 9662 7080 9595 ct 
7080 9595 l  7013 9528 6904 9528 6837 9595 ct 6698 9734 l  6941 9977 l  6941 9977 l 
p ef
gr
gs
0.957 0.406 0.406 c 6744 9779 m  6560 9963 l  6553 9970 6553 9980 6560 9986 ct 
6563 9989 6567 9991 6571 9991 ct 6575 9991 6579 9989 6582 9986 ct 6767 9802 l 
6744 9779 l  6744 9779 l  p ef
gr
gs
0.988 0.843 0.441 c 6766 9802 m  6938 9631 l  6944 9625 6944 9615 6938 9608 ct 
6931 9602 6921 9602 6915 9608 ct 6744 9779 l  6766 9802 l  6766 9802 l  p ef
gr
gs
36 lw 1 lj 0.003 0.003 0.003 c 2117 10334 m  8595 10334 l  ps
gr
gs
0.003 0.003 0.003 c 9100 10334 m  8572 10158 l  8572 10510 l  9100 10334 l 
p ef
gr
gs
0.675 0.886 1.000 c 3188 9063 m  3150 9063 3114 9049 3087 9022 ct 3060 8995 3046 8959 3046 8921 ct 
3046 8883 3060 8848 3087 8821 ct 3433 8475 l  3460 8448 3495 8434 3533 8434 ct 
3571 8434 3607 8448 3634 8475 ct 3661 8502 3675 8538 3675 8576 ct 3675 8614 3661 8649 3634 8676 ct 
3288 9022 l  3261 9049 3226 9063 3188 9063 ct 3188 9063 l  p ef
gr
gs
0.613 0.863 1.000 c 3634 8475 m  3087 9022 l  3087 9022 l  3114 9049 3150 9063 3188 9063 ct 
3226 9063 3261 9049 3288 9022 ct 3634 8676 l  3661 8649 3675 8614 3675 8576 ct 
3675 8538 3661 8502 3634 8475 ct 3634 8475 l  3634 8475 l  p ef
gr
gs
0.917 0.265 0.339 c 3675 8576 m  3675 8538 3661 8502 3634 8475 ct 3607 8448 3571 8434 3533 8434 ct 
3495 8434 3460 8448 3433 8475 ct 3260 8648 l  3461 8849 l  3634 8676 l  3661 8649 3675 8614 3675 8576 ct 
3675 8576 l  p ef
gr
gs
0.867 0.140 0.207 c 3636 8477 m  3362 8750 l  3461 8849 l  3634 8676 l 
3661 8649 3675 8614 3675 8576 ct 3675 8539 3661 8504 3636 8477 ct 3636 8477 l 
p ef
gr
gs
1.000 1.000 1.000 c 3103 8969 m  3076 8943 3076 8900 3103 8873 ct 3236 8740 l 
3262 8766 l  3129 8900 l  3117 8912 3117 8931 3129 8943 ct 3103 8969 l  3103 8969 l 
p ef
gr
gs
0.976 0.433 0.433 c 3378 8650 m  3352 8624 l  3485 8491 l  3512 8464 3555 8464 3581 8491 ct 
3555 8517 l  3543 8505 3524 8505 3512 8517 ct 3378 8650 l  3378 8650 l  p ef
gr
gs
0.867 0.210 0.183 c 6690 8622 m  6549 8763 l  6482 8830 6482 8939 6549 9006 ct 
6549 9006 l  6616 9073 6725 9073 6792 9006 ct 6933 8865 l  6690 8622 l  6690 8622 l 
p ef
gr
gs
0.921 0.730 0.089 c 6933 8865 m  7072 8726 l  7139 8659 7139 8550 7072 8483 ct 
7072 8483 l  7005 8416 6896 8416 6829 8483 ct 6690 8622 l  6933 8865 l  6933 8865 l 
p ef
gr
gs
0.957 0.406 0.406 c 6736 8667 m  6552 8851 l  6545 8858 6545 8868 6552 8874 ct 
6555 8877 6559 8879 6563 8879 ct 6567 8879 6571 8877 6574 8874 ct 6759 8690 l 
6736 8667 l  6736 8667 l  p ef
gr
gs
0.988 0.843 0.441 c 6758 8690 m  6930 8519 l  6936 8513 6936 8503 6930 8496 ct 
6923 8490 6913 8490 6907 8496 ct 6736 8667 l  6758 8690 l  6758 8690 l  p ef
gr
gs
36 lw 1 lj 0.003 0.003 0.003 c 2109 9223 m  8587 9223 l  ps
gr
gs
0.003 0.003 0.003 c 9092 9223 m  8564 9047 l  8564 9399 l  9092 9223 l  p ef
gr
gs
0.675 0.886 1.000 c 3180 7851 m  3142 7851 3106 7837 3079 7810 ct 3052 7783 3038 7747 3038 7709 ct 
3038 7671 3052 7636 3079 7609 ct 3425 7263 l  3452 7236 3487 7222 3525 7222 ct 
3563 7222 3599 7236 3626 7263 ct 3653 7290 3667 7326 3667 7364 ct 3667 7402 3653 7437 3626 7464 ct 
3280 7810 l  3253 7837 3218 7851 3180 7851 ct 3180 7851 l  p ef
gr
gs
0.613 0.863 1.000 c 3626 7263 m  3079 7810 l  3079 7810 l  3106 7837 3142 7851 3180 7851 ct 
3218 7851 3253 7837 3280 7810 ct 3626 7464 l  3653 7437 3667 7402 3667 7364 ct 
3667 7326 3653 7290 3626 7263 ct 3626 7263 l  3626 7263 l  p ef
gr
gs
0.917 0.265 0.339 c 3667 7364 m  3667 7326 3653 7290 3626 7263 ct 3599 7236 3563 7222 3525 7222 ct 
3487 7222 3452 7236 3425 7263 ct 3252 7436 l  3453 7637 l  3626 7464 l  3653 7437 3667 7402 3667 7364 ct 
3667 7364 l  p ef
gr
gs
0.867 0.140 0.207 c 3628 7265 m  3354 7538 l  3453 7637 l  3626 7464 l 
3653 7437 3667 7402 3667 7364 ct 3667 7327 3653 7292 3628 7265 ct 3628 7265 l 
p ef
gr
gs
1.000 1.000 1.000 c 3095 7757 m  3068 7731 3068 7688 3095 7661 ct 3228 7528 l 
3254 7554 l  3121 7688 l  3109 7700 3109 7719 3121 7731 ct 3095 7757 l  3095 7757 l 
p ef
gr
gs
0.976 0.433 0.433 c 3370 7438 m  3344 7412 l  3477 7279 l  3504 7252 3547 7252 3573 7279 ct 
3547 7305 l  3535 7293 3516 7293 3504 7305 ct 3370 7438 l  3370 7438 l  p ef
gr
gs
0.867 0.210 0.183 c 6682 7410 m  6541 7551 l  6474 7618 6474 7727 6541 7794 ct 
6541 7794 l  6608 7861 6717 7861 6784 7794 ct 6925 7653 l  6682 7410 l  6682 7410 l 
p ef
gr
gs
0.921 0.730 0.089 c 6925 7653 m  7064 7514 l  7131 7447 7131 7338 7064 7271 ct 
7064 7271 l  6997 7204 6888 7204 6821 7271 ct 6682 7410 l  6925 7653 l  6925 7653 l 
p ef
gr
gs
0.957 0.406 0.406 c 6728 7455 m  6544 7639 l  6537 7646 6537 7656 6544 7662 ct 
6547 7665 6551 7667 6555 7667 ct 6559 7667 6563 7665 6566 7662 ct 6751 7478 l 
6728 7455 l  6728 7455 l  p ef
gr
gs
0.988 0.843 0.441 c 6750 7478 m  6922 7307 l  6928 7301 6928 7291 6922 7284 ct 
6915 7278 6905 7278 6899 7284 ct 6728 7455 l  6750 7478 l  6750 7478 l  p ef
gr
gs
36 lw 1 lj 0.003 0.003 0.003 c 2101 8011 m  8579 8011 l  ps
gr
gs
0.003 0.003 0.003 c 9084 8011 m  8556 7835 l  8556 8187 l  9084 8011 l  p ef
gr
gs
0.933 0.441 0.363 c 8298 6220 m  8290 6211 8279 6205 8267 6205 ct 8173 6205 l 
8173 6533 l  8263 6533 l  8263 6495 8294 6465 8331 6465 ct 8369 6465 8399 6495 8399 6533 ct 
8430 6533 l  8444 6533 8455 6521 8455 6507 ct 8455 6344 l  8455 6329 8444 6318 8430 6318 ct 
8382 6318 l  8379 6318 8375 6316 8372 6313 ct 8298 6220 l  p ef
gr
gs
0.902 0.902 0.902 c 8173 6397 m  7801 6397 l  7801 6136 l  7801 6118 7815 6104 7833 6104 ct 
8141 6104 l  8159 6104 8173 6118 8173 6136 ct 8173 6397 l  8173 6397 l  p ef
gr
gs
0.359 0.359 0.359 c 8331 6600 m  8294 6600 8263 6570 8263 6533 ct 8263 6495 8294 6465 8331 6465 ct 
8369 6465 8399 6495 8399 6533 ct 8399 6570 8369 6600 8331 6600 ct p ef
gr
gs
0.359 0.359 0.359 c 7925 6600 m  7887 6600 7857 6570 7857 6533 ct 7857 6495 7887 6465 7925 6465 ct 
7962 6465 7993 6495 7993 6533 ct 7993 6570 7962 6600 7925 6600 ct p ef
gr
gs
0.632 0.296 0.242 c 7801 6397 m  7801 6510 l  7801 6522 7811 6533 7823 6533 ct 
7857 6533 l  7857 6495 7887 6465 7925 6465 ct 7962 6465 7993 6495 7993 6533 ct 
8173 6533 l  8173 6397 l  7801 6397 l  7801 6397 l  p ef
gr
gs
0.699 0.699 0.699 c 7925 6555 m  7912 6555 7902 6545 7902 6533 ct 7902 6520 7912 6510 7925 6510 ct 
7937 6510 7947 6520 7947 6533 ct 7947 6545 7937 6555 7925 6555 ct p ef
gr
gs
0.699 0.699 0.699 c 8331 6555 m  8319 6555 8309 6545 8309 6533 ct 8309 6520 8319 6510 8331 6510 ct 
8344 6510 8354 6520 8354 6533 ct 8354 6545 8344 6555 8331 6555 ct p ef
gr
gs
0.902 0.902 0.902 c 8298 6220 m  8290 6211 8279 6205 8267 6205 ct 8241 6205 l 
8241 6265 l  8241 6276 8249 6284 8260 6284 ct 8349 6284 l  8298 6220 l  8298 6220 l 
p ef
gr
gs
0.937 0.445 0.367 c 8011 6228 m  8007 6228 8004 6224 8004 6220 ct 8004 6190 l 
8004 6186 8000 6183 7996 6183 ct 7966 6183 l  7962 6183 7959 6186 7959 6190 ct 
7959 6220 l  7959 6224 7955 6228 7951 6228 ct 7921 6228 l  7917 6228 7914 6231 7914 6235 ct 
7914 6265 l  7914 6270 7917 6273 7921 6273 ct 7951 6273 l  7955 6273 7959 6276 7959 6281 ct 
7959 6311 l  7959 6315 7962 6318 7966 6318 ct 7996 6318 l  8000 6318 8004 6315 8004 6311 ct 
8004 6281 l  8004 6276 8007 6273 8011 6273 ct 8041 6273 l  8046 6273 8049 6270 8049 6265 ct 
8049 6235 l  8049 6231 8046 6228 8041 6228 ct 8011 6228 l  p ef
gr
gs
0.632 0.296 0.242 c 8455 6408 m  8455 6386 l  8263 6386 l  8257 6386 8252 6391 8252 6397 ct 
8252 6403 8257 6408 8263 6408 ct 8455 6408 l  8455 6408 l  p ef
gr
gs
0.675 0.886 1.000 c 3172 6739 m  3134 6739 3098 6725 3071 6698 ct 3044 6671 3030 6635 3030 6597 ct 
3030 6559 3044 6524 3071 6497 ct 3417 6151 l  3444 6124 3479 6110 3517 6110 ct 
3555 6110 3591 6124 3618 6151 ct 3645 6178 3659 6214 3659 6252 ct 3659 6290 3645 6325 3618 6352 ct 
3272 6698 l  3245 6725 3210 6739 3172 6739 ct 3172 6739 l  p ef
gr
gs
0.613 0.863 1.000 c 3618 6151 m  3071 6698 l  3071 6698 l  3098 6725 3134 6739 3172 6739 ct 
3210 6739 3245 6725 3272 6698 ct 3618 6352 l  3645 6325 3659 6290 3659 6252 ct 
3659 6214 3645 6178 3618 6151 ct 3618 6151 l  3618 6151 l  p ef
gr
gs
0.917 0.265 0.339 c 3659 6252 m  3659 6214 3645 6178 3618 6151 ct 3591 6124 3555 6110 3517 6110 ct 
3479 6110 3444 6124 3417 6151 ct 3244 6324 l  3445 6525 l  3618 6352 l  3645 6325 3659 6290 3659 6252 ct 
3659 6252 l  p ef
gr
gs
0.867 0.140 0.207 c 3620 6153 m  3346 6426 l  3445 6525 l  3618 6352 l 
3645 6325 3659 6290 3659 6252 ct 3659 6215 3645 6180 3620 6153 ct 3620 6153 l 
p ef
gr
gs
1.000 1.000 1.000 c 3087 6645 m  3060 6619 3060 6576 3087 6549 ct 3220 6416 l 
3246 6442 l  3113 6576 l  3101 6588 3101 6607 3113 6619 ct 3087 6645 l  3087 6645 l 
p ef
gr
gs
0.976 0.433 0.433 c 3362 6326 m  3336 6300 l  3469 6167 l  3496 6140 3539 6140 3565 6167 ct 
3539 6193 l  3527 6181 3508 6181 3496 6193 ct 3362 6326 l  3362 6326 l  p ef
gr
gs
0.867 0.210 0.183 c 6674 6298 m  6533 6439 l  6466 6506 6466 6615 6533 6682 ct 
6533 6682 l  6600 6749 6709 6749 6776 6682 ct 6917 6541 l  6674 6298 l  6674 6298 l 
p ef
gr
gs
0.921 0.730 0.089 c 6917 6541 m  7056 6402 l  7123 6335 7123 6226 7056 6159 ct 
7056 6159 l  6989 6092 6880 6092 6813 6159 ct 6674 6298 l  6917 6541 l  6917 6541 l 
p ef
gr
gs
0.957 0.406 0.406 c 6720 6343 m  6536 6527 l  6529 6534 6529 6544 6536 6550 ct 
6539 6553 6543 6555 6547 6555 ct 6551 6555 6555 6553 6558 6550 ct 6743 6366 l 
6720 6343 l  6720 6343 l  p ef
gr
gs
0.988 0.843 0.441 c 6742 6366 m  6914 6195 l  6920 6189 6920 6179 6914 6172 ct 
6907 6166 6897 6166 6891 6172 ct 6720 6343 l  6742 6366 l  6742 6366 l  p ef
gr
gs
36 lw 1 lj 0.003 0.003 0.003 c 2093 6899 m  8571 6899 l  ps
gr
gs
0.003 0.003 0.003 c 9076 6899 m  8548 6723 l  8548 7075 l  9076 6899 l  p ef
gr
gs
0.933 0.441 0.363 c 4549 7347 m  4541 7338 4530 7332 4518 7332 ct 4424 7332 l 
4424 7660 l  4514 7660 l  4514 7622 4545 7592 4582 7592 ct 4620 7592 4650 7622 4650 7660 ct 
4681 7660 l  4695 7660 4706 7648 4706 7634 ct 4706 7471 l  4706 7456 4695 7445 4681 7445 ct 
4633 7445 l  4630 7445 4626 7443 4623 7440 ct 4549 7347 l  p ef
gr
gs
0.902 0.902 0.902 c 4424 7524 m  4052 7524 l  4052 7263 l  4052 7245 4066 7231 4084 7231 ct 
4392 7231 l  4410 7231 4424 7245 4424 7263 ct 4424 7524 l  4424 7524 l  p ef
gr
gs
0.359 0.359 0.359 c 4582 7727 m  4545 7727 4514 7697 4514 7660 ct 4514 7622 4545 7592 4582 7592 ct 
4620 7592 4650 7622 4650 7660 ct 4650 7697 4620 7727 4582 7727 ct p ef
gr
gs
0.359 0.359 0.359 c 4176 7727 m  4138 7727 4108 7697 4108 7660 ct 4108 7622 4138 7592 4176 7592 ct 
4213 7592 4244 7622 4244 7660 ct 4244 7697 4213 7727 4176 7727 ct p ef
gr
gs
0.632 0.296 0.242 c 4052 7524 m  4052 7637 l  4052 7649 4062 7660 4074 7660 ct 
4108 7660 l  4108 7622 4138 7592 4176 7592 ct 4213 7592 4244 7622 4244 7660 ct 
4424 7660 l  4424 7524 l  4052 7524 l  4052 7524 l  p ef
gr
gs
0.699 0.699 0.699 c 4176 7682 m  4163 7682 4153 7672 4153 7660 ct 4153 7647 4163 7637 4176 7637 ct 
4188 7637 4198 7647 4198 7660 ct 4198 7672 4188 7682 4176 7682 ct p ef
gr
gs
0.699 0.699 0.699 c 4582 7682 m  4570 7682 4560 7672 4560 7660 ct 4560 7647 4570 7637 4582 7637 ct 
4595 7637 4605 7647 4605 7660 ct 4605 7672 4595 7682 4582 7682 ct p ef
gr
gs
0.902 0.902 0.902 c 4549 7347 m  4541 7338 4530 7332 4518 7332 ct 4492 7332 l 
4492 7392 l  4492 7403 4500 7411 4511 7411 ct 4600 7411 l  4549 7347 l  4549 7347 l 
p ef
gr
gs
0.937 0.445 0.367 c 4262 7355 m  4258 7355 4255 7351 4255 7347 ct 4255 7317 l 
4255 7313 4251 7310 4247 7310 ct 4217 7310 l  4213 7310 4210 7313 4210 7317 ct 
4210 7347 l  4210 7351 4206 7355 4202 7355 ct 4172 7355 l  4168 7355 4165 7358 4165 7362 ct 
4165 7392 l  4165 7397 4168 7400 4172 7400 ct 4202 7400 l  4206 7400 4210 7403 4210 7408 ct 
4210 7438 l  4210 7442 4213 7445 4217 7445 ct 4247 7445 l  4251 7445 4255 7442 4255 7438 ct 
4255 7408 l  4255 7403 4258 7400 4262 7400 ct 4292 7400 l  4297 7400 4300 7397 4300 7392 ct 
4300 7362 l  4300 7358 4297 7355 4292 7355 ct 4262 7355 l  p ef
gr
gs
0.632 0.296 0.242 c 4706 7535 m  4706 7513 l  4514 7513 l  4508 7513 4503 7518 4503 7524 ct 
4503 7530 4508 7535 4514 7535 ct 4706 7535 l  4706 7535 l  p ef
gr
gs
0.933 0.441 0.363 c 5849 8647 m  5841 8638 5830 8632 5818 8632 ct 5724 8632 l 
5724 8960 l  5814 8960 l  5814 8922 5845 8892 5882 8892 ct 5920 8892 5950 8922 5950 8960 ct 
5981 8960 l  5995 8960 6006 8948 6006 8934 ct 6006 8771 l  6006 8756 5995 8745 5981 8745 ct 
5933 8745 l  5930 8745 5926 8743 5923 8740 ct 5849 8647 l  p ef
gr
gs
0.902 0.902 0.902 c 5724 8824 m  5352 8824 l  5352 8563 l  5352 8545 5366 8531 5384 8531 ct 
5692 8531 l  5710 8531 5724 8545 5724 8563 ct 5724 8824 l  5724 8824 l  p ef
gr
gs
0.359 0.359 0.359 c 5882 9027 m  5845 9027 5814 8997 5814 8960 ct 5814 8922 5845 8892 5882 8892 ct 
5920 8892 5950 8922 5950 8960 ct 5950 8997 5920 9027 5882 9027 ct p ef
gr
gs
0.359 0.359 0.359 c 5476 9027 m  5438 9027 5408 8997 5408 8960 ct 5408 8922 5438 8892 5476 8892 ct 
5513 8892 5544 8922 5544 8960 ct 5544 8997 5513 9027 5476 9027 ct p ef
gr
gs
0.632 0.296 0.242 c 5352 8824 m  5352 8937 l  5352 8949 5362 8960 5374 8960 ct 
5408 8960 l  5408 8922 5438 8892 5476 8892 ct 5513 8892 5544 8922 5544 8960 ct 
5724 8960 l  5724 8824 l  5352 8824 l  5352 8824 l  p ef
gr
gs
0.699 0.699 0.699 c 5476 8982 m  5463 8982 5453 8972 5453 8960 ct 5453 8947 5463 8937 5476 8937 ct 
5488 8937 5498 8947 5498 8960 ct 5498 8972 5488 8982 5476 8982 ct p ef
gr
gs
0.699 0.699 0.699 c 5882 8982 m  5870 8982 5860 8972 5860 8960 ct 5860 8947 5870 8937 5882 8937 ct 
5895 8937 5905 8947 5905 8960 ct 5905 8972 5895 8982 5882 8982 ct p ef
gr
gs
0.902 0.902 0.902 c 5849 8647 m  5841 8638 5830 8632 5818 8632 ct 5792 8632 l 
5792 8692 l  5792 8703 5800 8711 5811 8711 ct 5900 8711 l  5849 8647 l  5849 8647 l 
p ef
gr
gs
0.937 0.445 0.367 c 5562 8655 m  5558 8655 5555 8651 5555 8647 ct 5555 8617 l 
5555 8613 5551 8610 5547 8610 ct 5517 8610 l  5513 8610 5510 8613 5510 8617 ct 
5510 8647 l  5510 8651 5506 8655 5502 8655 ct 5472 8655 l  5468 8655 5465 8658 5465 8662 ct 
5465 8692 l  5465 8697 5468 8700 5472 8700 ct 5502 8700 l  5506 8700 5510 8703 5510 8708 ct 
5510 8738 l  5510 8742 5513 8745 5517 8745 ct 5547 8745 l  5551 8745 5555 8742 5555 8738 ct 
5555 8708 l  5555 8703 5558 8700 5562 8700 ct 5592 8700 l  5597 8700 5600 8697 5600 8692 ct 
5600 8662 l  5600 8658 5597 8655 5592 8655 ct 5562 8655 l  p ef
gr
gs
0.632 0.296 0.242 c 6006 8835 m  6006 8813 l  5814 8813 l  5808 8813 5803 8818 5803 8824 ct 
5803 8830 5808 8835 5814 8835 ct 6006 8835 l  6006 8835 l  p ef
gr
gs
0.675 0.886 1.000 c 4189 9064 m  4151 9064 4115 9050 4088 9023 ct 4061 8996 4047 8960 4047 8922 ct 
4047 8884 4061 8849 4088 8822 ct 4434 8476 l  4461 8449 4496 8435 4534 8435 ct 
4572 8435 4608 8449 4635 8476 ct 4662 8503 4676 8539 4676 8577 ct 4676 8615 4662 8650 4635 8677 ct 
4289 9023 l  4262 9050 4227 9064 4189 9064 ct 4189 9064 l  p ef
gr
gs
0.613 0.863 1.000 c 4635 8476 m  4088 9023 l  4088 9023 l  4115 9050 4151 9064 4189 9064 ct 
4227 9064 4262 9050 4289 9023 ct 4635 8677 l  4662 8650 4676 8615 4676 8577 ct 
4676 8539 4662 8503 4635 8476 ct 4635 8476 l  4635 8476 l  p ef
gr
gs
0.917 0.265 0.339 c 4676 8577 m  4676 8539 4662 8503 4635 8476 ct 4608 8449 4572 8435 4534 8435 ct 
4496 8435 4461 8449 4434 8476 ct 4261 8649 l  4462 8850 l  4635 8677 l  4662 8650 4676 8615 4676 8577 ct 
4676 8577 l  p ef
gr
gs
0.867 0.140 0.207 c 4637 8478 m  4363 8751 l  4462 8850 l  4635 8677 l 
4662 8650 4676 8615 4676 8577 ct 4676 8540 4662 8505 4637 8478 ct 4637 8478 l 
p ef
gr
gs
1.000 1.000 1.000 c 4104 8970 m  4077 8944 4077 8901 4104 8874 ct 4237 8741 l 
4263 8767 l  4130 8901 l  4118 8913 4118 8932 4130 8944 ct 4104 8970 l  4104 8970 l 
p ef
gr
gs
0.976 0.433 0.433 c 4379 8651 m  4353 8625 l  4486 8492 l  4513 8465 4556 8465 4582 8492 ct 
4556 8518 l  4544 8506 4525 8506 4513 8518 ct 4379 8651 l  4379 8651 l  p ef
gr
gs
0.675 0.886 1.000 c 5490 10164 m  5452 10164 5416 10150 5389 10123 ct 5362 10096 5348 10061 5348 10023 ct 
5348 9985 5362 9950 5389 9923 ct 5735 9577 l  5762 9550 5797 9536 5835 9536 ct 
5873 9536 5909 9550 5936 9577 ct 5963 9604 5977 9640 5977 9678 ct 5977 9716 5963 9751 5936 9778 ct 
5590 10123 l  5563 10150 5528 10164 5490 10164 ct 5490 10164 l  p ef
gr
gs
0.613 0.863 1.000 c 5936 9577 m  5389 10123 l  5389 10123 l  5416 10150 5452 10164 5490 10164 ct 
5528 10164 5563 10150 5590 10123 ct 5936 9778 l  5963 9751 5977 9716 5977 9678 ct 
5977 9640 5963 9604 5936 9577 ct 5936 9577 l  5936 9577 l  p ef
gr
gs
0.917 0.265 0.339 c 5977 9678 m  5977 9640 5963 9604 5936 9577 ct 5909 9550 5873 9536 5835 9536 ct 
5797 9536 5762 9550 5735 9577 ct 5562 9750 l  5763 9951 l  5936 9778 l  5963 9751 5977 9716 5977 9678 ct 
5977 9678 l  p ef
gr
gs
0.867 0.140 0.207 c 5938 9579 m  5664 9852 l  5763 9951 l  5936 9778 l 
5963 9751 5977 9716 5977 9678 ct 5977 9641 5963 9606 5938 9579 ct 5938 9579 l 
p ef
gr
gs
1.000 1.000 1.000 c 5405 10071 m  5378 10045 5378 10002 5405 9975 ct 5538 9842 l 
5564 9868 l  5431 10002 l  5419 10014 5419 10033 5431 10045 ct 5405 10071 l 
5405 10071 l  p ef
gr
gs
0.976 0.433 0.433 c 5680 9752 m  5654 9726 l  5787 9593 l  5814 9566 5857 9566 5883 9593 ct 
5857 9619 l  5845 9607 5826 9607 5814 9619 ct 5680 9752 l  5680 9752 l  p ef
gr
gs
0.867 0.210 0.183 c 4299 9735 m  4158 9876 l  4091 9943 4091 10052 4158 10118 ct 
4158 10118 l  4225 10185 4334 10185 4401 10118 ct 4542 9978 l  4299 9735 l 
4299 9735 l  p ef
gr
gs
0.921 0.730 0.089 c 4542 9978 m  4681 9839 l  4748 9772 4748 9663 4681 9596 ct 
4681 9596 l  4614 9529 4505 9529 4438 9596 ct 4299 9735 l  4542 9978 l  4542 9978 l 
p ef
gr
gs
0.957 0.406 0.406 c 4345 9780 m  4161 9964 l  4154 9971 4154 9981 4161 9987 ct 
4164 9990 4168 9992 4172 9992 ct 4176 9992 4180 9990 4183 9987 ct 4368 9803 l 
4345 9780 l  4345 9780 l  p ef
gr
gs
0.988 0.843 0.441 c 4367 9803 m  4539 9632 l  4545 9626 4545 9616 4539 9609 ct 
4532 9603 4522 9603 4516 9609 ct 4345 9780 l  4367 9803 l  4367 9803 l  p ef
gr
gs
0 lw 1 lj [ 53.0915 53.0915 ] 0 ld
0.003 0.003 0.003 c 5633 13063 m  871 13063 l  871 11286 l  10394 11286 l 
10394 13063 l  5633 13063 l  pc
gr
gs
0.933 0.441 0.363 c 8290 5109 m  8282 5100 8271 5094 8259 5094 ct 8165 5094 l 
8165 5422 l  8255 5422 l  8255 5384 8286 5354 8323 5354 ct 8361 5354 8391 5384 8391 5422 ct 
8422 5422 l  8436 5422 8447 5410 8447 5396 ct 8447 5233 l  8447 5218 8436 5207 8422 5207 ct 
8374 5207 l  8371 5207 8367 5205 8364 5202 ct 8290 5109 l  p ef
gr
gs
0.902 0.902 0.902 c 8165 5286 m  7793 5286 l  7793 5025 l  7793 5007 7807 4993 7825 4993 ct 
8133 4993 l  8151 4993 8165 5007 8165 5025 ct 8165 5286 l  8165 5286 l  p ef
gr
gs
0.359 0.359 0.359 c 8323 5489 m  8286 5489 8255 5459 8255 5422 ct 8255 5384 8286 5354 8323 5354 ct 
8361 5354 8391 5384 8391 5422 ct 8391 5459 8361 5489 8323 5489 ct p ef
gr
gs
0.359 0.359 0.359 c 7917 5489 m  7879 5489 7849 5459 7849 5422 ct 7849 5384 7879 5354 7917 5354 ct 
7954 5354 7985 5384 7985 5422 ct 7985 5459 7954 5489 7917 5489 ct p ef
gr
gs
0.632 0.296 0.242 c 7793 5286 m  7793 5399 l  7793 5411 7803 5422 7815 5422 ct 
7849 5422 l  7849 5384 7879 5354 7917 5354 ct 7954 5354 7985 5384 7985 5422 ct 
8165 5422 l  8165 5286 l  7793 5286 l  7793 5286 l  p ef
gr
gs
0.699 0.699 0.699 c 7917 5444 m  7904 5444 7894 5434 7894 5422 ct 7894 5409 7904 5399 7917 5399 ct 
7929 5399 7939 5409 7939 5422 ct 7939 5434 7929 5444 7917 5444 ct p ef
gr
gs
0.699 0.699 0.699 c 8323 5444 m  8311 5444 8301 5434 8301 5422 ct 8301 5409 8311 5399 8323 5399 ct 
8336 5399 8346 5409 8346 5422 ct 8346 5434 8336 5444 8323 5444 ct p ef
gr
gs
0.902 0.902 0.902 c 8290 5109 m  8282 5100 8271 5094 8259 5094 ct 8233 5094 l 
8233 5154 l  8233 5165 8241 5173 8252 5173 ct 8341 5173 l  8290 5109 l  8290 5109 l 
p ef
gr
gs
0.937 0.445 0.367 c 8003 5117 m  7999 5117 7996 5113 7996 5109 ct 7996 5079 l 
7996 5075 7992 5072 7988 5072 ct 7958 5072 l  7954 5072 7951 5075 7951 5079 ct 
7951 5109 l  7951 5113 7947 5117 7943 5117 ct 7913 5117 l  7909 5117 7906 5120 7906 5124 ct 
7906 5154 l  7906 5159 7909 5162 7913 5162 ct 7943 5162 l  7947 5162 7951 5165 7951 5170 ct 
7951 5200 l  7951 5204 7954 5207 7958 5207 ct 7988 5207 l  7992 5207 7996 5204 7996 5200 ct 
7996 5170 l  7996 5165 7999 5162 8003 5162 ct 8033 5162 l  8038 5162 8041 5159 8041 5154 ct 
8041 5124 l  8041 5120 8038 5117 8033 5117 ct 8003 5117 l  p ef
gr
gs
0.632 0.296 0.242 c 8447 5297 m  8447 5275 l  8255 5275 l  8249 5275 8244 5280 8244 5286 ct 
8244 5292 8249 5297 8255 5297 ct 8447 5297 l  8447 5297 l  p ef
gr
gs
0.675 0.886 1.000 c 3164 5628 m  3126 5628 3090 5614 3063 5587 ct 3036 5560 3022 5524 3022 5486 ct 
3022 5448 3036 5413 3063 5386 ct 3409 5040 l  3436 5013 3471 4999 3509 4999 ct 
3547 4999 3583 5013 3610 5040 ct 3637 5067 3651 5103 3651 5141 ct 3651 5179 3637 5214 3610 5241 ct 
3264 5587 l  3237 5614 3202 5628 3164 5628 ct 3164 5628 l  p ef
gr
gs
0.613 0.863 1.000 c 3610 5040 m  3063 5587 l  3063 5587 l  3090 5614 3126 5628 3164 5628 ct 
3202 5628 3237 5614 3264 5587 ct 3610 5241 l  3637 5214 3651 5179 3651 5141 ct 
3651 5103 3637 5067 3610 5040 ct 3610 5040 l  3610 5040 l  p ef
gr
gs
0.917 0.265 0.339 c 3651 5141 m  3651 5103 3637 5067 3610 5040 ct 3583 5013 3547 4999 3509 4999 ct 
3471 4999 3436 5013 3409 5040 ct 3236 5213 l  3437 5414 l  3610 5241 l  3637 5214 3651 5179 3651 5141 ct 
3651 5141 l  p ef
gr
gs
0.867 0.140 0.207 c 3612 5042 m  3338 5315 l  3437 5414 l  3610 5241 l 
3637 5214 3651 5179 3651 5141 ct 3651 5104 3637 5069 3612 5042 ct 3612 5042 l 
p ef
gr
gs
1.000 1.000 1.000 c 3079 5534 m  3052 5508 3052 5465 3079 5438 ct 3212 5305 l 
3238 5331 l  3105 5465 l  3093 5477 3093 5496 3105 5508 ct 3079 5534 l  3079 5534 l 
p ef
gr
gs
0.976 0.433 0.433 c 3354 5215 m  3328 5189 l  3461 5056 l  3488 5029 3531 5029 3557 5056 ct 
3531 5082 l  3519 5070 3500 5070 3488 5082 ct 3354 5215 l  3354 5215 l  p ef
gr
gs
0.867 0.210 0.183 c 6666 5187 m  6525 5328 l  6458 5395 6458 5504 6525 5571 ct 
6525 5571 l  6592 5638 6701 5638 6768 5571 ct 6909 5430 l  6666 5187 l  6666 5187 l 
p ef
gr
gs
0.921 0.730 0.089 c 6909 5430 m  7048 5291 l  7115 5224 7115 5115 7048 5048 ct 
7048 5048 l  6981 4981 6872 4981 6805 5048 ct 6666 5187 l  6909 5430 l  6909 5430 l 
p ef
gr
gs
0.957 0.406 0.406 c 6712 5232 m  6528 5416 l  6521 5423 6521 5433 6528 5439 ct 
6531 5442 6535 5444 6539 5444 ct 6543 5444 6547 5442 6550 5439 ct 6735 5255 l 
6712 5232 l  6712 5232 l  p ef
gr
gs
0.988 0.843 0.441 c 6734 5255 m  6906 5084 l  6912 5078 6912 5068 6906 5061 ct 
6899 5055 6889 5055 6883 5061 ct 6712 5232 l  6734 5255 l  6734 5255 l  p ef
gr
gs
36 lw 1 lj 0.003 0.003 0.003 c 2085 5788 m  8563 5788 l  ps
gr
gs
0.003 0.003 0.003 c 9068 5788 m  8540 5612 l  8540 5964 l  9068 5788 l  p ef
gr
0 8074 t 
pom
count op_count sub {pop} repeat countdictstack dict_count sub {end} repeat b4_inc_state restore
%%PageTrailer
%%Trailer
%%EOF
